<?xml version="1.0" encoding="utf-8"?>
<!-- Generator: Adobe Illustrator 21.1.0, SVG Export Plug-In . SVG Version: 6.00 Build 0)  -->
<svg version="1.1" id="Layer_1" xmlns="http://www.w3.org/2000/svg" xmlns:xlink="http://www.w3.org/1999/xlink" x="0px" y="0px"
	 viewBox="0 0 311.8 134.6" style="enable-background:new 0 0 311.8 134.6;" xml:space="preserve">
<style type="text/css">
	.st0{fill:url(#SVGID_1_);}
	.st1{fill:url(#SVGID_2_);}
	.st2{fill:url(#SVGID_3_);}
	.st3{fill:url(#SVGID_4_);}
	.st4{fill:url(#SVGID_5_);}
	.st5{fill:url(#SVGID_6_);}
	.st6{fill:url(#SVGID_7_);}
	.st7{fill:url(#SVGID_8_);}
	.st8{fill:url(#SVGID_9_);}
	.st9{fill:url(#SVGID_10_);}
	.st10{fill:url(#SVGID_11_);}
	.st11{fill:url(#SVGID_12_);}
	.st12{fill:url(#SVGID_13_);}
	.st13{fill:url(#SVGID_14_);}
	.st14{fill:#0091D3;}
</style>
<g>
	<g>
		<linearGradient id="SVGID_1_" gradientUnits="userSpaceOnUse" x1="77.73" y1="91.8772" x2="101.2955" y2="91.8772">
			<stop  offset="0.1098" style="stop-color:#E72F72"/>
			<stop  offset="0.8613" style="stop-color:#ED694B"/>
		</linearGradient>
		<path class="st0" d="M77.7,89.6c0,0,0-0.1,0.2-1c0.2-0.7,0.2-1.4,0.2-1.4l23.1,7.1c0,0-0.2,0.4-0.6,0.9c-0.5,0.7-1.1,1.3-1.1,1.3
			L77.7,89.6z"/>
		<linearGradient id="SVGID_2_" gradientUnits="userSpaceOnUse" x1="28.122" y1="50.3621" x2="55.0781" y2="50.3621">
			<stop  offset="0" style="stop-color:#169FDB"/>
			<stop  offset="1" style="stop-color:#73C1EC"/>
		</linearGradient>
		<polygon class="st1" points="28.1,47.2 55.1,50.9 55.1,53.5 28.1,50.6 		"/>
		<linearGradient id="SVGID_3_" gradientUnits="userSpaceOnUse" x1="28.122" y1="69.894" x2="55.0781" y2="69.894">
			<stop  offset="0" style="stop-color:#169FDB"/>
			<stop  offset="1" style="stop-color:#007EC3"/>
		</linearGradient>
		<polygon class="st2" points="28.1,72.1 55.1,69.8 55.1,67.7 28.1,69.8 		"/>
		<linearGradient id="SVGID_4_" gradientUnits="userSpaceOnUse" x1="37.4658" y1="96.2754" x2="49.1128" y2="83.2491">
			<stop  offset="0" style="stop-color:#1961AC"/>
			<stop  offset="1" style="stop-color:#007EC3"/>
		</linearGradient>
		<path class="st3" d="M31.2,92.6l24.2-10.1c0,0,0.2,1.1,0.4,2c0.2,0.8,0.4,1.4,0.4,1.4l-23.1,9.5c0,0-0.3-0.3-0.8-1
			C31.6,93.3,31.2,92.6,31.2,92.6z"/>
		<linearGradient id="SVGID_5_" gradientUnits="userSpaceOnUse" x1="77.073" y1="71.5492" x2="102.0401" y2="71.5492">
			<stop  offset="5.202310e-02" style="stop-color:#F9B233"/>
			<stop  offset="0.7399" style="stop-color:#ED694B"/>
		</linearGradient>
		<path class="st4" d="M77.1,72.5c0,0,0.2,1.1,0.3,1.8c0.1,0.7,24.6-3.5,24.6-3.5s-0.3-1.4-0.4-2C101.5,68.2,77.1,72.5,77.1,72.5z"
			/>
		<linearGradient id="SVGID_6_" gradientUnits="userSpaceOnUse" x1="73.7411" y1="52.6763" x2="100.1884" y2="52.6763">
			<stop  offset="0.1619" style="stop-color:#F9B233"/>
			<stop  offset="0.8497" style="stop-color:#FFD631"/>
		</linearGradient>
		<path class="st5" d="M73.7,51.1c0,0,0.2-1,0.6-2c0.4-1.1,0.8-1.8,0.8-1.8l25.1,8.6c0,0-0.1,0.3-0.2,0.6c-0.2,0.8-0.2,1.5-0.2,1.5
			L73.7,51.1z"/>
	</g>
	<g>
		<linearGradient id="SVGID_7_" gradientUnits="userSpaceOnUse" x1="28.122" y1="40.3695" x2="62.4762" y2="40.3695">
			<stop  offset="0" style="stop-color:#169FDB"/>
			<stop  offset="1" style="stop-color:#73C1EC"/>
		</linearGradient>
		<path class="st6" d="M62.5,52.1V38.7h-7.4V28.6h-5.2c-14.4,0-21.8,5.6-21.8,17.6v2.5l27.8,3.4H62.5z"/>
		<linearGradient id="SVGID_8_" gradientUnits="userSpaceOnUse" x1="25.9993" y1="59.7217" x2="50.7007" y2="59.7217">
			<stop  offset="0" style="stop-color:#169FDB"/>
			<stop  offset="1" style="stop-color:#007EC3"/>
		</linearGradient>
		<polygon class="st7" points="55.1,52.2 55.1,52.1 55.9,52.1 28.1,48.7 28.1,70.7 55.1,68.8 		"/>
		<linearGradient id="SVGID_9_" gradientUnits="userSpaceOnUse" x1="46.6381" y1="90.187" x2="61.4825" y2="101.4686">
			<stop  offset="0" style="stop-color:#1961AC"/>
			<stop  offset="1" style="stop-color:#164194"/>
		</linearGradient>
		<path class="st8" d="M71.4,92.6c-1,0.2-3,0.4-4.2,0.4c-7.1,0-10.2-3.5-11.4-8.5l-23.5,9.9c4.2,5.9,11.1,9.7,19.2,11.1
			C51.6,105.4,66.7,102,71.4,92.6z"/>
		<linearGradient id="SVGID_10_" gradientUnits="userSpaceOnUse" x1="31.454" y1="89.3636" x2="47.706" y2="71.187">
			<stop  offset="0" style="stop-color:#1961AC"/>
			<stop  offset="1" style="stop-color:#007EC3"/>
		</linearGradient>
		<path class="st9" d="M55.1,77.2v-8.4l-27,1.9v9.5c0,5.6,1.5,10.3,4.2,14.2l23.5-9.9C55.3,82.3,55.1,79.8,55.1,77.2z"/>
		<linearGradient id="SVGID_11_" gradientUnits="userSpaceOnUse" x1="74.3074" y1="47.6279" x2="108.2547" y2="47.6279">
			<stop  offset="0.1619" style="stop-color:#F9B233"/>
			<stop  offset="0.8497" style="stop-color:#FFD631"/>
		</linearGradient>
		<path class="st10" d="M108.3,52.1V38.7H91c-8.4,0-14.4,4.2-16.7,10.4l25.7,7.4C100.9,53.1,103.9,52,108.3,52.1z"/>
		<linearGradient id="SVGID_12_" gradientUnits="userSpaceOnUse" x1="73.3955" y1="61.1689" x2="101.827" y2="61.1689">
			<stop  offset="5.202310e-02" style="stop-color:#F9B233"/>
			<stop  offset="0.7399" style="stop-color:#ED694B"/>
		</linearGradient>
		<path class="st11" d="M100,60.8c-0.2-1.7-0.2-3.1,0.1-4.2l-25.7-7.4c-1,2.8-1.2,6.1-0.4,9.6c1.2,5.7,2.5,10.1,3.4,14.6l24.6-3.5
			C100.9,65.4,100.1,61.7,100,60.8z"/>
		<linearGradient id="SVGID_13_" gradientUnits="userSpaceOnUse" x1="76.5633" y1="114.6864" x2="82.8761" y2="92.7415">
			<stop  offset="0" style="stop-color:#C3006B"/>
			<stop  offset="0.8902" style="stop-color:#E72F72"/>
		</linearGradient>
		<path class="st12" d="M78,88.6c-1.5,7.3-7,13.1-17.2,16.8l0.2,1c0.9,0,3.3,0.1,8.6,0.1c11.7,0,25-2.8,31.1-11.2L78,88.6z"/>
		<linearGradient id="SVGID_14_" gradientUnits="userSpaceOnUse" x1="78.9463" y1="86.3991" x2="102.8444" y2="81.1904">
			<stop  offset="0.1098" style="stop-color:#E72F72"/>
			<stop  offset="0.8613" style="stop-color:#ED694B"/>
		</linearGradient>
		<path class="st13" d="M104,84.3c0-3.2-1.1-9.3-2.2-14.5l-24.6,3.5c0.7,3.5,1.1,7.1,1.1,11.2c0,1.4-0.1,2.8-0.4,4.1l22.7,6.6
			C102.8,92.3,104,88.7,104,84.3z"/>
	</g>
</g>
<g>
	<path class="st14" d="M141.8,47.4h-12.3h-0.2v0.2v42.1V90h0.2H141c14.9,0,21.8-6.8,21.8-21.3C162.9,54.6,155.8,47.4,141.8,47.4z
		 M142.1,84.7h-6.8V52.8h6.8c9.9,0,14.6,5.1,14.6,16C156.6,79.6,152,84.7,142.1,84.7z"/>
	<path class="st14" d="M179.7,58.1c-4.4,0-8.7,1.7-11.9,4.6l-0.2,0.2l0.1,0.2l2.4,3.2l0.1,0.2l0.2-0.1c2.8-2.1,5.3-3.3,8.9-3.3
		c4,0,6.2,2.3,6.2,6.4V72c-1.6-0.2-2.9-0.3-4.6-0.3c-13.1,0-14.5,6.9-14.5,9.9c0,5.7,3.5,9.1,9.5,9.1c4.6,0,7.9-1.8,10.1-5.3
		l0.4,4.4l0,0.2h0.2h4.2h0.2v-0.2V69.2C191.3,61.9,187.2,58.1,179.7,58.1z M185.6,76.4v1c0,4-3.6,8.8-8.1,8.8
		c-3.4,0-5.3-1.6-5.3-4.4c0-3.9,2.8-5.6,8.9-5.6C183.4,76.1,184.5,76.2,185.6,76.4z"/>
	<path class="st14" d="M213.3,58.1c-4.6,0-7.9,2.5-10,4.8L203,59l0-0.2h-0.2h-4.4h-0.2v0.2v30.7V90h0.2h5.1h0.2v-0.2v-22
		c0.6-0.7,4.1-4.5,8.5-4.5c3.6,0,5.3,2.4,5.3,7.7v18.8V90h0.2h5.2h0.2v-0.2V69.6C223.1,62,219.8,58.1,213.3,58.1z"/>
	<path class="st14" d="M242.9,58.1c-8.8,0-14.4,6.5-14.4,16.5c0,10.3,5.3,16.2,14.5,16.2c4.6,0,8.6-1.4,11.9-4.2l0.2-0.1l-0.1-0.2
		l-2-3.5l-0.1-0.2l-0.2,0.2c-3.2,2.2-6,3.2-9.2,3.2c-7,0-8.7-5.2-8.9-9.6h20.7h0.2l0-0.2c0.1-0.5,0.1-2.2,0.1-2.7
		C255.5,63.2,251.3,58.1,242.9,58.1z M234.5,71.5c0.2-1.7,1.2-8.6,8.5-8.6c4.5,0,6.9,2.9,7,8.6H234.5z"/>
	<path class="st14" d="M272.1,58.1c-4.4,0-8.7,1.7-11.9,4.6l-0.2,0.2l0.1,0.2l2.4,3.2l0.1,0.2l0.2-0.1c2.8-2.1,5.3-3.3,8.9-3.3
		c4,0,6.2,2.3,6.2,6.4V72c-1.6-0.2-2.9-0.3-4.6-0.3c-13.1,0-14.5,6.9-14.5,9.9c0,5.7,3.5,9.1,9.5,9.1c4.6,0,7.9-1.8,10.1-5.3
		l0.4,4.4l0,0.2h0.2h4.2h0.2v-0.2V69.2C283.7,61.9,279.7,58.1,272.1,58.1z M278,76.4v1c0,4-3.6,8.8-8.1,8.8c-3.4,0-5.3-1.6-5.3-4.4
		c0-3.9,2.8-5.6,8.9-5.6C275.8,76.1,277,76.2,278,76.4z"/>
</g>
</svg>
