<?xml version="1.0" encoding="utf-8"?>
<!-- Generator: Adobe Illustrator 21.1.0, SVG Export Plug-In . SVG Version: 6.00 Build 0)  -->
<svg version="1.1" id="Layer_1" xmlns="http://www.w3.org/2000/svg" xmlns:xlink="http://www.w3.org/1999/xlink" x="0px" y="0px"
	 viewBox="0 0 328.8 134.6" style="enable-background:new 0 0 328.8 134.6;" xml:space="preserve">
<style type="text/css">
	.st0{fill:url(#SVGID_1_);}
	.st1{fill:url(#SVGID_2_);}
	.st2{fill:url(#SVGID_3_);}
	.st3{fill:url(#SVGID_4_);}
	.st4{fill:url(#SVGID_5_);}
	.st5{fill:url(#SVGID_6_);}
	.st6{fill:url(#SVGID_7_);}
	.st7{fill:url(#SVGID_8_);}
	.st8{fill:url(#SVGID_9_);}
	.st9{fill:url(#SVGID_10_);}
	.st10{fill:url(#SVGID_11_);}
	.st11{fill:url(#SVGID_12_);}
	.st12{fill:url(#SVGID_13_);}
	.st13{fill:url(#SVGID_14_);}
	.st14{fill:#0091D3;}
</style>
<g>
	<g>
		<linearGradient id="SVGID_1_" gradientUnits="userSpaceOnUse" x1="77.3274" y1="91.9495" x2="100.8929" y2="91.9495">
			<stop  offset="0.1098" style="stop-color:#E72F72"/>
			<stop  offset="0.8613" style="stop-color:#ED694B"/>
		</linearGradient>
		<path class="st0" d="M77.3,89.6c0,0,0-0.1,0.2-1c0.2-0.7,0.2-1.4,0.2-1.4l23.1,7.1c0,0-0.2,0.4-0.6,0.9c-0.5,0.7-1.1,1.3-1.1,1.3
			L77.3,89.6z"/>
		<linearGradient id="SVGID_2_" gradientUnits="userSpaceOnUse" x1="27.7194" y1="50.4344" x2="54.6756" y2="50.4344">
			<stop  offset="0" style="stop-color:#169FDB"/>
			<stop  offset="1" style="stop-color:#73C1EC"/>
		</linearGradient>
		<polygon class="st1" points="27.7,47.3 54.7,50.9 54.7,53.6 27.7,50.6 		"/>
		<linearGradient id="SVGID_3_" gradientUnits="userSpaceOnUse" x1="27.7194" y1="69.9663" x2="54.6756" y2="69.9663">
			<stop  offset="0" style="stop-color:#169FDB"/>
			<stop  offset="1" style="stop-color:#007EC3"/>
		</linearGradient>
		<polygon class="st2" points="27.7,72.2 54.7,69.8 54.7,67.8 27.7,69.8 		"/>
		<linearGradient id="SVGID_4_" gradientUnits="userSpaceOnUse" x1="37.0632" y1="96.3477" x2="48.7103" y2="83.3214">
			<stop  offset="0" style="stop-color:#1961AC"/>
			<stop  offset="1" style="stop-color:#007EC3"/>
		</linearGradient>
		<path class="st3" d="M30.8,92.7L55,82.6c0,0,0.2,1.1,0.4,2c0.2,0.8,0.4,1.4,0.4,1.4l-23.1,9.5c0,0-0.3-0.3-0.8-1
			C31.2,93.3,30.8,92.7,30.8,92.7z"/>
		<linearGradient id="SVGID_5_" gradientUnits="userSpaceOnUse" x1="76.6705" y1="71.6215" x2="101.6375" y2="71.6215">
			<stop  offset="5.202310e-02" style="stop-color:#F9B233"/>
			<stop  offset="0.7399" style="stop-color:#ED694B"/>
		</linearGradient>
		<path class="st4" d="M76.7,72.6c0,0,0.2,1.1,0.3,1.8c0.1,0.7,24.6-3.5,24.6-3.5s-0.3-1.4-0.4-2C101.1,68.3,76.7,72.6,76.7,72.6z"
			/>
		<linearGradient id="SVGID_6_" gradientUnits="userSpaceOnUse" x1="73.3385" y1="52.7486" x2="99.7858" y2="52.7486">
			<stop  offset="0.1619" style="stop-color:#F9B233"/>
			<stop  offset="0.8497" style="stop-color:#FFD631"/>
		</linearGradient>
		<path class="st5" d="M73.3,51.2c0,0,0.2-1,0.6-2c0.4-1.1,0.8-1.8,0.8-1.8L99.8,56c0,0-0.1,0.3-0.2,0.6c-0.2,0.8-0.2,1.5-0.2,1.5
			L73.3,51.2z"/>
	</g>
	<g>
		<linearGradient id="SVGID_7_" gradientUnits="userSpaceOnUse" x1="27.7194" y1="40.4418" x2="62.0736" y2="40.4418">
			<stop  offset="0" style="stop-color:#169FDB"/>
			<stop  offset="1" style="stop-color:#73C1EC"/>
		</linearGradient>
		<path class="st6" d="M62.1,52.2V38.8h-7.4V28.7h-5.2c-14.4,0-21.8,5.6-21.8,17.6v2.5l27.8,3.4H62.1z"/>
		<linearGradient id="SVGID_8_" gradientUnits="userSpaceOnUse" x1="25.5967" y1="59.794" x2="50.2982" y2="59.794">
			<stop  offset="0" style="stop-color:#169FDB"/>
			<stop  offset="1" style="stop-color:#007EC3"/>
		</linearGradient>
		<polygon class="st7" points="54.7,52.3 54.7,52.2 55.5,52.2 27.7,48.8 27.7,70.8 54.7,68.9 		"/>
		<linearGradient id="SVGID_9_" gradientUnits="userSpaceOnUse" x1="46.2355" y1="90.2593" x2="61.0799" y2="101.541">
			<stop  offset="0" style="stop-color:#1961AC"/>
			<stop  offset="1" style="stop-color:#164194"/>
		</linearGradient>
		<path class="st8" d="M71,92.7c-1,0.2-3,0.4-4.2,0.4c-7.1,0-10.2-3.5-11.4-8.5l-23.5,9.9c4.2,5.9,11.1,9.7,19.2,11.1
			C51.2,105.5,66.3,102,71,92.7z"/>
		<linearGradient id="SVGID_10_" gradientUnits="userSpaceOnUse" x1="31.0514" y1="89.4359" x2="47.3035" y2="71.2593">
			<stop  offset="0" style="stop-color:#1961AC"/>
			<stop  offset="1" style="stop-color:#007EC3"/>
		</linearGradient>
		<path class="st9" d="M54.7,77.3v-8.4l-27,1.9v9.5c0,5.6,1.5,10.3,4.2,14.2l23.5-9.9C54.9,82.3,54.7,79.8,54.7,77.3z"/>
		<linearGradient id="SVGID_11_" gradientUnits="userSpaceOnUse" x1="73.9048" y1="47.7002" x2="107.8521" y2="47.7002">
			<stop  offset="0.1619" style="stop-color:#F9B233"/>
			<stop  offset="0.8497" style="stop-color:#FFD631"/>
		</linearGradient>
		<path class="st10" d="M107.9,52.2V38.8H90.6c-8.4,0-14.4,4.2-16.7,10.4l25.7,7.4C100.5,53.2,103.5,52.1,107.9,52.2z"/>
		<linearGradient id="SVGID_12_" gradientUnits="userSpaceOnUse" x1="72.9929" y1="61.2412" x2="101.4244" y2="61.2412">
			<stop  offset="5.202310e-02" style="stop-color:#F9B233"/>
			<stop  offset="0.7399" style="stop-color:#ED694B"/>
		</linearGradient>
		<path class="st11" d="M99.6,60.8c-0.2-1.7-0.2-3.1,0.1-4.2l-25.7-7.4c-1,2.8-1.2,6.1-0.4,9.6c1.2,5.7,2.5,10.1,3.4,14.6l24.6-3.5
			C100.5,65.5,99.7,61.8,99.6,60.8z"/>
		<linearGradient id="SVGID_13_" gradientUnits="userSpaceOnUse" x1="76.1607" y1="114.7587" x2="82.4735" y2="92.8138">
			<stop  offset="0" style="stop-color:#C3006B"/>
			<stop  offset="0.8902" style="stop-color:#E72F72"/>
		</linearGradient>
		<path class="st12" d="M77.6,88.6c-1.5,7.3-7,13.1-17.2,16.8l0.2,1c0.9,0,3.3,0.1,8.6,0.1c11.7,0,25-2.8,31.1-11.2L77.6,88.6z"/>
		<linearGradient id="SVGID_14_" gradientUnits="userSpaceOnUse" x1="78.5437" y1="86.4714" x2="102.4419" y2="81.2628">
			<stop  offset="0.1098" style="stop-color:#E72F72"/>
			<stop  offset="0.8613" style="stop-color:#ED694B"/>
		</linearGradient>
		<path class="st13" d="M103.6,84.3c0-3.2-1.1-9.3-2.2-14.5l-24.6,3.5c0.7,3.5,1.1,7.1,1.1,11.2c0,1.4-0.1,2.8-0.4,4.1l22.7,6.6
			C102.4,92.4,103.6,88.8,103.6,84.3z"/>
	</g>
</g>
<g>
	<polygon class="st14" points="155.4,47.5 155.2,47.5 155.2,47.7 155.2,65.3 135,65.3 135,47.7 135,47.5 134.7,47.5 129.3,47.5 
		129.1,47.5 129.1,47.7 129.1,89.7 129.1,89.9 129.3,89.9 134.7,89.9 135,89.9 135,89.7 135,70.8 155.2,70.8 155.2,89.7 155.2,89.9 
		155.4,89.9 160.8,89.9 161.1,89.9 161.1,89.7 161.1,47.7 161.1,47.5 160.8,47.5 	"/>
	<path class="st14" d="M187.8,58.9h-0.2v0.2v22c-1.6,1.9-4.2,4.3-8,4.3c-3.9,0-5.5-2.1-5.5-7.1V59.1v-0.2h-0.2h-5.2h-0.2v0.2v20.5
		c0,7.5,3.1,11,9.7,11c4.5,0,7.8-2.5,9.8-4.8l0.4,3.8l0,0.2h0.2h4.3h0.2v-0.2V59.1v-0.2h-0.2H187.8z"/>
	<path class="st14" d="M231.8,58.2c-4.6,0-7.6,2.5-9.7,4.8c-1.2-3.2-3.7-4.8-7.6-4.8c-3.5,0-6.6,1.6-9.3,4.7l-0.3-3.8l0-0.2h-0.2
		h-4.4H200v0.2v30.6v0.2h0.2h5.1h0.2v-0.2v-22c1.8-2,4.5-4.3,7.6-4.3c3,0,4.2,1.8,4.2,6.2v20.1v0.2h0.2h5.2h0.2v-0.2V67.6
		c1.7-1.9,4.3-4.2,7.3-4.2c3,0,4.3,1.8,4.3,6v20.3v0.2h0.2h5.1h0.2v-0.2V68.5C240.3,61.5,237.5,58.2,231.8,58.2z"/>
	<path class="st14" d="M266.3,58.9H266v0.2v22c-1.6,1.9-4.2,4.3-8,4.3c-3.9,0-5.5-2.1-5.5-7.1V59.1v-0.2h-0.2h-5.2h-0.2v0.2v20.5
		c0,7.5,3.1,11,9.7,11c4.5,0,7.8-2.5,9.8-4.8l0.4,3.8l0,0.2h0.2h4.3h0.2v-0.2V59.1v-0.2h-0.2H266.3z"/>
	<path class="st14" d="M290.6,71.7c-5.4-1.4-7.2-2.3-7.2-4.9c0-2.5,2.1-4,5.6-4c3,0,6,1.2,8.5,3.4l0.2,0.2l0.2-0.2l2.4-3.1l0.1-0.2
		l-0.2-0.2c-3.1-3.1-6.9-4.6-11.4-4.6c-6.9,0-11.3,3.6-11.3,9.2c0,4.8,2.7,7.3,10.1,9.1c5.6,1.4,6.9,2.4,6.9,5.1
		c0,2.7-2.3,4.3-6.2,4.3c-2.9,0-6.5-1.4-9.5-3.8l-0.2-0.2l-0.2,0.2l-2.4,3.3l-0.1,0.2l0.1,0.1c3.1,3.1,7.8,5,12.6,5
		c7.3,0,11.9-3.7,11.9-9.7C300.6,76.1,297.9,73.6,290.6,71.7z"/>
</g>
</svg>
