[
  {
    "label": "<strong>color-30</strong> work",
    "thumb": "components/color-grid/img/t_0.jpg",
    "detailsJSON": "pages/scheda/data/color-30_work.json",
    "tech": ["14mm"],
    "feats": ["6 spessori", "4 formati", "8 finiture"]
  },
  {
    "label": "<strong>color-20</strong> work",
    "thumb": "components/color-grid/img/t_1.jpg",
    "detailsJSON": "pages/scheda/data/color-20_work.json",
    "tech": ["kerlite", "14mm"],
    "feats": ["6 spessori", "4 formati", "8 finiture"]
  },
  {
    "label": "<strong>color-10</strong> work",
    "thumb": "components/color-grid/img/t_2.jpg",
    "detailsJSON": "pages/scheda/data/color-10_work.json",
    "tech": ["14mm", "20mm"],
    "feats": ["6 spessori", "4 formati", "8 finiture"]
  },

  {
    "label": "<strong>color-30</strong> cem",
    "thumb": "components/color-grid/img/t_3.jpg",
    "detailsJSON": "pages/scheda/data/color-30_cem.json",
    "tech": ["kerlite", "14mm"],
    "feats": ["6 spessori", "4 formati", "8 finiture"]
  },
  {
    "label": "<strong>color-20</strong> cem",
    "thumb": "components/color-grid/img/t_4.jpg",
    "detailsJSON": "pages/scheda/data/color-20_cem.json",
    "tech": ["14mm", "20mm"],
    "feats": ["6 spessori", "4 formati", "8 finiture"]
  },
  {
    "label": "<strong>color-10</strong> cem",
    "thumb": "components/color-grid/img/t_5.jpg",
    "detailsJSON": "pages/scheda/data/color-10_cem.json",
    "tech": ["kerlite"],
    "feats": ["6 spessori", "4 formati", "8 finiture"]
  },

  {
    "label": "<strong>color-30</strong> land",
    "thumb": "components/color-grid/img/t_6.jpg",
    "detailsJSON": "pages/scheda/data/color-30_land.json",
    "tech": ["kerlite", "14mm"],
    "feats": ["6 spessori", "4 formati", "8 finiture"]
  },
  {
    "label": "<strong>color-20</strong> land",
    "thumb": "components/color-grid/img/t_7.jpg",
    "detailsJSON": "pages/scheda/data/color-20_land.json",
    "tech": ["kerlite", "20mm"],
    "feats": ["6 spessori", "4 formati", "8 finiture"]
  },
  {
    "label": "<strong>color-10</strong> land",
    "thumb": "components/color-grid/img/t_8.jpg",
    "detailsJSON": "pages/scheda/data/color-10_land.json",
    "tech": ["14mm", "20mm"],
    "feats": ["6 spessori", "4 formati", "8 finiture"]
  }

]