<svg xmlns="http://www.w3.org/2000/svg" viewBox="0 0 22.14 13.136">
  <defs>
    <style>
      .cls-1 {
        fill: none;
        stroke: #fff;
      }
    </style>
  </defs>
  <g id="Group_639" data-name="Group 639" transform="translate(-596.289 -359.314)">
    <path id="Path_989" data-name="Path 989" class="cls-1" d="M-2060.5,337.95V325.814h21.14V337.95Z" transform="translate(2657.289 34)"/>
    <path id="Path_990" data-name="Path 990" class="cls-1" d="M-2060.539,325.832l10.731,7.933,10.313-7.933" transform="translate(2657.328 33.983)"/>
  </g>
</svg>
