<?xml version="1.0" standalone="no"?>
<!DOCTYPE svg PUBLIC "-//W3C//DTD SVG 20010904//EN"
 "http://www.w3.org/TR/2001/REC-SVG-20010904/DTD/svg10.dtd">
<svg version="1.0" xmlns="http://www.w3.org/2000/svg"
 width="290.000000pt" height="290.000000pt" viewBox="0 0 290.000000 290.000000"
 preserveAspectRatio="xMidYMid meet">
<metadata>
Created by potrace 1.11, written by Peter Selinger 2001-2013
</metadata>
<g transform="translate(0.000000,290.000000) scale(0.100000,-0.100000)"
fill="#000000" stroke="none">
<path d="M1370 2833 c-466 -30 -878 -283 -1114 -683 -80 -135 -132 -275 -172
-465 -7 -32 -18 -185 -18 -240 0 -64 13 -225 18 -233 2 -4 7 -23 10 -42 3 -19
14 -64 24 -100 140 -480 522 -847 1003 -964 653 -158 1319 168 1597 784 38 83
76 211 98 325 22 118 22 347 -1 474 -81 461 -387 848 -816 1033 -187 80 -431
123 -629 111z m-45 -185 c33 -11 75 -28 93 -39 l33 -19 61 31 c155 78 367 66
534 -30 67 -39 200 -165 262 -249 128 -173 228 -438 249 -665 9 -93 9 -371 0
-465 -12 -132 -68 -330 -130 -462 -73 -156 -228 -343 -349 -422 -186 -121
-432 -138 -592 -40 -29 18 -31 17 -85 -10 -85 -42 -154 -57 -256 -53 -108 3
-231 41 -317 98 -124 83 -260 243 -340 401 -39 77 -111 281 -121 341 -3 17
-10 61 -16 99 -13 78 -18 432 -7 516 32 249 111 465 234 640 64 91 195 219
270 263 75 44 167 76 242 84 30 3 56 7 58 8 9 8 125 -10 177 -27z"/>
<path d="M1230 2082 c-220 -23 -368 -107 -472 -267 -93 -143 -110 -370 -39
-531 70 -157 224 -282 391 -318 42 -9 115 -14 210 -12 129 2 154 5 223 29 89
31 88 31 86 15 -6 -46 -1 -48 73 -39 6 1 2 96 -7 171 -1 14 -3 44 -4 68 -1 41
-2 42 -36 42 -30 0 -35 -3 -35 -22 0 -92 -176 -179 -348 -173 -70 3 -169 52
-218 108 -134 154 -163 432 -64 627 43 85 91 135 168 172 58 29 75 32 146 32
121 -2 209 -46 266 -133 23 -37 50 -121 50 -157 0 -2 16 -4 35 -4 29 0 35 4
36 23 1 12 2 36 4 52 1 17 6 94 9 171 l7 141 -23 5 c-42 7 -58 -2 -58 -32 l0
-28 -72 25 c-69 23 -255 43 -328 35z"/>
<path d="M1788 1912 l-48 -3 0 -43 0 -43 66 -6 c150 -14 255 -102 271 -228 5
-37 7 -39 43 -39 22 0 37 5 37 13 1 6 4 87 8 178 l7 166 -24 5 c-36 7 -48 -1
-48 -32 l0 -28 -68 24 c-38 13 -93 26 -123 29 -30 4 -58 7 -64 8 -5 1 -31 1
-57 -1z"/>
<path d="M1450 1823 c-94 -55 -199 -166 -243 -255 -44 -90 -56 -147 -52 -246
3 -77 28 -170 60 -218 22 -33 92 -37 177 -8 36 12 48 20 44 31 -10 25 -28 154
-23 159 5 5 276 7 570 5 l107 -1 -1 -37 c-2 -61 -1 -63 36 -63 l35 0 0 150 0
150 -35 0 c-33 0 -35 -2 -36 -32 -1 -18 -1 -36 0 -40 1 -7 -88 -9 -504 -9 -69
0 -137 0 -151 1 -25 0 -25 1 -19 53 13 112 53 195 124 263 23 21 41 47 41 57
0 23 -37 77 -53 77 -7 0 -41 -17 -77 -37z"/>
<path d="M2089 1131 c0 -3 -2 -23 -5 -43 -8 -85 -71 -169 -152 -204 -78 -34
-245 -14 -340 41 -42 24 -45 24 -103 11 -74 -18 -62 -16 -111 -16 l-43 0 25
-21 c44 -35 156 -88 232 -109 53 -15 103 -21 181 -21 142 0 216 14 297 56 30
16 44 8 34 -19 -4 -11 2 -19 17 -25 50 -18 52 -11 45 163 -4 89 -9 168 -11
176 -5 15 -64 25 -66 11z"/>
</g>
</svg>
