<svg xmlns="http://www.w3.org/2000/svg" viewBox="0 0 14.792 14.793">
  <defs>
    <style>
      .cls-1 {
        fill: none;
        stroke: #ed1a5a;
        stroke-miterlimit: 10;
      }
    </style>
  </defs>
  <path id="Path_1159" data-name="Path 1159" class="cls-1" d="M9.96,0V9.96H0" transform="translate(14.792 7.396) rotate(135)"/>
</svg>
