<svg xmlns="http://www.w3.org/2000/svg" viewBox="-5965.684 -6702.52 21.41 14.772">
  <defs>
    <style>
      .cls-1 {
        fill: none;
        stroke: #5B5E60;
      }
    </style>
  </defs>
  <g id="Group_298" data-name="Group 298" transform="translate(-6167 -9668)">
    <path id="Path_887" data-name="Path 887" class="cls-1" d="M0,0,10.554,6.867,16.916,2.6,20.828,0" transform="translate(201.621 2965.899)"/>
    <path id="Path_888" data-name="Path 888" class="cls-1" d="M0,0,10.306,6.993,16.916,2.6,20.828,0" transform="translate(222.421 2979.836) rotate(180)"/>
  </g>
</svg>
