<svg xmlns="http://www.w3.org/2000/svg" viewBox="0 0 10.951 10.715">
  <defs>
    <style>
      .cls-1 {
        fill: none;
        stroke: #020202;
      }
    </style>
  </defs>
  <g id="Group_409" data-name="Group 409" transform="translate(-1316.898 -1644.143)">
    <line id="Line_92" data-name="Line 92" class="cls-1" y1="10" x2="10.252" transform="translate(1317.248 1644.5)"/>
    <line id="Line_93" data-name="Line 93" class="cls-1" x2="10.252" y2="10" transform="translate(1317.248 1644.5)"/>
  </g>
</svg>
