<svg xmlns="http://www.w3.org/2000/svg" viewBox="0 0 21.409 14.772">
  <defs>
    <style>
      .cls-1 {
        fill: none;
        stroke: #A3A19F;
      }
    </style>
  </defs>
  <g id="Group_515" data-name="Group 515" transform="translate(-349.316 -1190.48)">
    <path id="Path_874" data-name="Path 874" class="cls-1" d="M0,0,10.554,6.867,16.916,2.6,20.828,0" transform="translate(349.621 1190.899)"/>
    <path id="Path_875" data-name="Path 875" class="cls-1" d="M0,0,10.306,6.993,16.916,2.6,20.828,0" transform="translate(370.421 1204.836) rotate(180)"/>
  </g>
</svg>
