<?xml version="1.0" encoding="utf-8"?>
<!-- Generator: Adobe Illustrator 21.1.0, SVG Export Plug-In . SVG Version: 6.00 Build 0)  -->
<svg version="1.1" id="Livello_1" xmlns="http://www.w3.org/2000/svg" xmlns:xlink="http://www.w3.org/1999/xlink" x="0px" y="0px"
	 viewBox="0 0 23.5 26.7" style="enable-background:new 0 0 23.5 26.7;" xml:space="preserve">
<style type="text/css">
	.st0{fill:url(#SVGID_1_);}
	.st1{fill:url(#SVGID_2_);}
	.st2{fill:url(#SVGID_3_);}
	.st3{fill:url(#SVGID_4_);}
</style>
<g>
	<linearGradient id="SVGID_1_" gradientUnits="userSpaceOnUse" x1="-0.6468" y1="3.9791" x2="24.5688" y2="3.9791">
		<stop  offset="0" style="stop-color:#119ED9"/>
		<stop  offset="1" style="stop-color:#72BFEB"/>
	</linearGradient>
	<path class="st0" d="M24.2-0.3C11.1-0.3-0.6-3-0.6,1.1V8l25.2,1.2"/>
	<linearGradient id="SVGID_2_" gradientUnits="userSpaceOnUse" x1="-2.2969" y1="11.5403" x2="20.0904" y2="11.5403">
		<stop  offset="0" style="stop-color:#119ED9"/>
		<stop  offset="1" style="stop-color:#007EC2"/>
	</linearGradient>
	<polygon class="st1" points="24.1,9 24.1,8.9 24.8,8.9 -0.4,7.8 -0.4,15.3 24.1,14.7 	"/>
	<linearGradient id="SVGID_3_" gradientUnits="userSpaceOnUse" x1="11.601" y1="20.1006" x2="27.7116" y2="32.3446">
		<stop  offset="0" style="stop-color:#1860AA"/>
		<stop  offset="1" style="stop-color:#164193"/>
	</linearGradient>
	<path class="st2" d="M38.9,22.7c-0.9,0.1-2.7,0.1-3.8,0.1c-6.4,0-9.2-1.2-10.3-2.9L3.5,23.3c-24.7,4.9,13.9,3.3,21.3,3.8
		C24.7,27,34.6,25.8,38.9,22.7z"/>
	<linearGradient id="SVGID_4_" gradientUnits="userSpaceOnUse" x1="1.6341" y1="29.3241" x2="15.2284" y2="14.12">
		<stop  offset="0" style="stop-color:#1860AA"/>
		<stop  offset="1" style="stop-color:#007EC2"/>
	</linearGradient>
	<path class="st3" d="M24.1,17.4v-2.9l-24.4,0.6v3.2c0,1.9-8.3,6-5.9,7.3l31-5.9C24.2,19.1,24.1,18.3,24.1,17.4z"/>
</g>
</svg>
