<svg xmlns="http://www.w3.org/2000/svg" viewBox="-17085.5 -6354.711 59.672 12.846">
  <defs>
    <style>
      .cls-1 {
        fill: none;
        stroke: #A3A19F;
      }
    </style>
  </defs>
  <path id="Union_2" data-name="Union 2" class="cls-1" d="M-1973.5,12h0L-1985,0ZM-1973.5,12Z" transform="translate(-15053.5 -6354.365)"/>
</svg>
