<svg xmlns="http://www.w3.org/2000/svg" viewBox="-14547.002 -9446.002 17.002 20.978">
  <defs>
    <style>
      .cls-1 {
        fill: #fff;
      }
    </style>
  </defs>
  <path id="Union_12" data-name="Union 12" class="cls-1" d="M19353.2,9466.9a1.319,1.319,0,0,0-.4-.3,5.452,5.452,0,0,1-.9-.7,23.646,23.646,0,0,1-2.8-2.7c-2.5-2.8-4.1-5.7-4.1-8.7a8.5,8.5,0,1,1,17,0c0,2.9-1.5,5.9-4.1,8.7a23.468,23.468,0,0,1-2.8,2.7c-.3.2-.6.5-.9.7-.2.2-.3.3-.4.3a.7.7,0,0,1-.3.073A.675.675,0,0,1,19353.2,9466.9Zm-7.2-12.4c0,2.7,1.4,5.4,3.9,8.1a32.7,32.7,0,0,0,2.7,2.6c.1.1.9.7.9.7a9.2,9.2,0,0,1,.9-.7c.9-.8,1.8-1.7,2.7-2.6,2.5-2.7,3.9-5.4,3.9-8.1a7.5,7.5,0,1,0-15,0Zm2,0a5.5,5.5,0,1,1,5.5,5.5A5.547,5.547,0,0,1,19348,9454.5Zm1,0a4.5,4.5,0,1,0,4.5-4.5A4.48,4.48,0,0,0,19349,9454.5Z" transform="translate(-33892 -18892)"/>
</svg>
