<svg xmlns="http://www.w3.org/2000/svg" viewBox="-14159 -9446 20 20">
  <defs>
    <style>
      .cls-1 {
        fill: #E30613;
      }
    </style>
  </defs>
  <path id="Path_910" data-name="Path 910" class="cls-1" d="M10,0A10,10,0,1,0,20,10,10,10,0,0,0,10,0Zm9.048,10a8.023,8.023,0,0,1-.667,3.333H14.857A18.883,18.883,0,0,0,15.143,10a18.883,18.883,0,0,0-.286-3.333h3.429A6.847,6.847,0,0,1,19.048,10ZM18,5.714H14.762a11.742,11.742,0,0,0-2.1-4.381A9.023,9.023,0,0,1,18,5.714ZM10.476,1.048c1.429.381,2.667,2.19,3.333,4.667H10.476ZM14,6.667A18.883,18.883,0,0,1,14.286,10,18.883,18.883,0,0,1,14,13.333H10.476V6.667ZM5.714,10A18.882,18.882,0,0,1,6,6.667H9.524v6.667H6A18.882,18.882,0,0,1,5.714,10Zm3.81-8.952V5.714H6.19C6.857,3.143,8.1,1.333,9.524,1.048Zm-2.1.286a10.523,10.523,0,0,0-2.19,4.381H2A8.94,8.94,0,0,1,7.429,1.333ZM1.619,6.667H5.048A18.882,18.882,0,0,0,4.762,10a18.882,18.882,0,0,0,.286,3.333H1.619A8.023,8.023,0,0,1,.952,10,8.023,8.023,0,0,1,1.619,6.667ZM2,14.286H5.238a11.742,11.742,0,0,0,2.1,4.381A9.023,9.023,0,0,1,2,14.286Zm4.19,0H9.524v4.667C8.1,18.667,6.857,16.857,6.19,14.286Zm4.286,4.667V14.286H13.81C13.143,16.857,11.9,18.667,10.476,18.952Zm2.1-.286a10.453,10.453,0,0,0,2.1-4.381H17.9A8.507,8.507,0,0,1,12.571,18.667Z" transform="translate(-14159 -9446)"/>
</svg>
