<?xml version="1.0" encoding="utf-8"?>
<!-- Generator: Adobe Illustrator 21.1.0, SVG Export Plug-In . SVG Version: 6.00 Build 0)  -->
<svg version="1.1" xmlns="http://www.w3.org/2000/svg" xmlns:xlink="http://www.w3.org/1999/xlink" x="0px" y="0px"
	 viewBox="0 0 140 140" style="enable-background:new 0 0 140 140;" xml:space="preserve">
<style type="text/css">
	.st0{fill:#FFFFFF;}
	.st1{display:none;fill:#FFFFFF;}
	.st2{display:none;}
	.st3{display:inline;}
	.st4{fill:none;stroke:#0090D1;stroke-width:2;stroke-linecap:round;stroke-linejoin:round;stroke-miterlimit:10;}
	.st5{display:inline;fill:none;stroke:#0090D1;stroke-width:2;stroke-linecap:round;stroke-linejoin:round;stroke-miterlimit:10;}
	.st6{display:inline;fill:#FFFFFF;}
	.st7{fill:none;stroke:#0090D1;stroke-linecap:round;stroke-linejoin:round;stroke-miterlimit:10;}
</style>
<g id="Livello_2">
	<circle class="st0" cx="70" cy="70" r="70"/>
</g>
<g id="Livello_1">
	<circle class="st1" cx="70" cy="70" r="70"/>
	<g class="st2">
		<g class="st3">
			<line class="st4" x1="54" y1="55.1" x2="67.9" y2="55.1"/>
			<line class="st4" x1="54" y1="59.4" x2="67.9" y2="59.4"/>
			<g>
				<line class="st4" x1="54.5" y1="74.6" x2="54.5" y2="66.4"/>
				<line class="st4" x1="60.9" y1="74.6" x2="60.9" y2="66.4"/>
				<line class="st4" x1="67.4" y1="74.6" x2="67.4" y2="66.4"/>
			</g>
			<polyline class="st4" points="70.3,46.8 70.3,38.9 61.7,38.9 60.2,38.9 51.6,38.9 51.6,46.8 			"/>
			<polyline class="st4" points="77,85.8 77,63.4 92.2,63.4 92.2,75.6 			"/>
			<polyline class="st4" points="65.2,94.4 48.3,94.4 48.3,48.2 73.6,48.2 73.6,88.2 			"/>
			<rect x="29.7" y="63.4" class="st4" width="15.2" height="31"/>
			<line class="st4" x1="80.2" y1="70.2" x2="89" y2="70.2"/>
			<line class="st4" x1="80.2" y1="73.9" x2="89" y2="73.9"/>
			<line class="st4" x1="32.9" y1="70.2" x2="41.7" y2="70.2"/>
			<line class="st4" x1="32.9" y1="73.9" x2="41.7" y2="73.9"/>
			<line class="st4" x1="60.9" y1="38.9" x2="60.9" y2="30.5"/>
		</g>
		<path class="st5" d="M87.2,95.5h-5.9l-11.8,7.1l-0.1,0.1c-0.6,0.5-1.2,0.7-1.8,0.7c-0.5,0-1-0.2-1.5-0.5c-0.5-0.4-1-0.8-1.5-1.4
			c-0.4-0.6-0.8-1.3-1.1-2c-0.3-0.7-0.4-1.3-0.4-1.9c0-1,0.5-1.9,1.4-2.6l24.2-17.7c1.6-1.1,3.6-2,5.9-2.5c2.3-0.5,4.5-0.8,6.4-0.8
			h9.1v19.6h-6.8c-1.4,0-2.7,0.3-4,1c-1.1,0.6-1.8,1-2.2,1.3c-4.8,3.4-8.2,5.7-10.8,7.5c-2.6,1.8-4.8,3.2-6.5,4.1
			c-1.6,0.9-2.9,1.4-3.9,1.7c-1,0.2-2,0.4-3.2,0.4H39.1c-2.3,0-4-0.5-5.1-1.5c-1.1-1-1.6-2.1-1.6-3.2c0-1.2,0.5-2.3,1.6-3.4
			c1.1-1.1,2.8-1.6,5.1-1.6h21.5"/>
	</g>
	<g class="st2">
		<circle class="st6" cx="70" cy="70" r="70"/>
		<g class="st3">
			<path class="st4" d="M98.1,88.6H38.7c-7.5,0-13.4-6.1-13.4-13.4c0-7.1,5.5-12.8,12.4-13.4C38.9,52.9,46.6,46,55.7,46
				c1.8,0,3.4,0.2,5.1,0.8C64.2,39.7,71.3,35,79.4,35c11.4,0,20.7,9.3,20.7,20.7l0,0c8.3,1,14.6,7.9,14.6,16.4
				C114.5,81.1,107.2,88.6,98.1,88.6z"/>
			<path class="st7" d="M94.7,71.7v-1.6v-3.5c0-0.4-0.4-0.6-0.6-0.6l0,0l0,0H89l-4.9-0.2l0,0l0,0c-0.2,0-0.6,0.2-0.6,0.6v3.4
				l-0.2,0.8c-0.2,0.2-0.4,0.4-0.8,0.4H69.3c-0.2,0-0.4,0-0.6,0.4c0,0.2,0,12.8,0,12.8c0,0.4,0.4,0.4,0.6,0.4h12.6h12.6
				c0.2,0,0.4,0,0.6-0.4C94.7,84.5,94.9,71.7,94.7,71.7z"/>
			<g>
				<g>
					<polyline class="st4" points="34.8,67.9 43.5,66.7 44.7,75.4 					"/>
				</g>
				<path class="st4" d="M36.2,105c0,0-14.8-14.8,1.8-31.7"/>
			</g>
			<g>
				<g>
					<polyline class="st4" points="105.6,99.9 97.5,103 94.4,94.9 					"/>
				</g>
				<path class="st4" d="M96.5,64c0,0,17.7,11.4,4.9,31.4"/>
			</g>
			<g>
				<path class="st7" d="M70.3,65V51.6c0-0.4-0.4-0.8-0.8-0.8H55.1c-0.4,0-0.8,0.4-0.8,0.8v0.8"/>
				<path class="st7" d="M61.6,74.6v-4.3c0-0.4,0.4-0.8,0.8-0.8h4.3L61.6,74.6z"/>
				<path class="st7" d="M51.2,74.6h10.6l5.1-5.1V56.1c0-0.4-0.4-0.8-0.8-0.8H51.6c-0.4,0-0.8,0.4-0.8,0.8v18.5"/>
				<line class="st7" x1="63.2" y1="58.3" x2="63.2" y2="65"/>
				<line class="st7" x1="61" y1="58.3" x2="61" y2="61.8"/>
				<line class="st7" x1="58.7" y1="58.3" x2="58.7" y2="61.8"/>
				<line class="st7" x1="61" y1="64.8" x2="61" y2="67.3"/>
				<path class="st7" d="M54.1,58.5"/>
				<path class="st7" d="M54.1,57.7"/>
				<line class="st7" x1="54.1" y1="66.7" x2="54.1" y2="67.3"/>
				<line class="st7" x1="63.2" y1="66.7" x2="63.2" y2="67.3"/>
				<line class="st7" x1="54.1" y1="58.3" x2="54.1" y2="61.8"/>
				<line class="st7" x1="56.3" y1="58.3" x2="56.3" y2="61.8"/>
				<line class="st7" x1="56.7" y1="63.4" x2="53.9" y2="63.4"/>
				<line class="st7" x1="61.4" y1="63.4" x2="58.5" y2="63.4"/>
				<line class="st7" x1="59.3" y1="67.1" x2="56.1" y2="67.1"/>
				<line class="st7" x1="59.1" y1="65.2" x2="53.9" y2="65.2"/>
			</g>
		</g>
	</g>
	<g>
		<g>
			<g>
				<path class="st4" d="M61.8,55.7c0-2.6,2.1-4.6,4.6-4.6c2.6,0,4.6,2.1,4.6,4.6c0,2.6-2.1,4.6-4.6,4.6v2.5"/>
				<polyline class="st4" points="79.1,82 97.7,82 66.2,63.9 35,82 58.1,82 				"/>
			</g>
			<g>
				<path class="st4" d="M104.9,101c-0.4-1.4-2-1.8-3.2-2.2c-1.8-0.5-3.6-1-5.3-1.5c-1.8-0.5-3.4-1.1-5.2-0.9
					c-1.7,0.2-3.1,0.5-4.6,0c-2.8-0.9-4.9-3.5-6.9-5.6C77.6,88.6,69.5,78.3,68.3,77c-1.1-1.1-1.5-1.1-2.5,0.1
					c-1.9,2.3-3.3,5.7-3.1,8.7c0.1,1.6,11.6,11.1,16.4,15.4c1.2,1.1,1.4,1.8,2.9,2.6c1.5,0.8,3.2,1,4.8,1.1
					c3.7,0.2,7.4-0.2,11.1-0.8c1.8-0.3,3.7-0.5,5.4-1.1C104.5,102.6,105.3,102.3,104.9,101z"/>
				<line class="st4" x1="62.7" y1="85.9" x2="62.7" y2="104.1"/>
			</g>
			<g>
				<path class="st4" d="M102.5,61.8c0,1.8-1.5,3.3-3.3,3.3H83.1c-1.8,0-3.3-1.5-3.3-3.3l1.5-16.2c0-1.8,1.5-3.3,3.3-3.3h13
					c1.8,0,3.3,1.5,3.3,3.3L102.5,61.8z"/>
				<path class="st4" d="M95.9,46.1v-6.2c0-2.7-2.2-4.9-4.9-4.9c-2.7,0-4.9,2.2-4.9,4.9v6.2"/>
			</g>
		</g>
	</g>
	<g class="st2">
		<g class="st3">
			<line class="st4" x1="69.2" y1="44.8" x2="69.2" y2="35"/>
			<line class="st4" x1="58.2" y1="35" x2="80.2" y2="35"/>
			<g>
				<path class="st4" d="M57.7,59.1c0-5-4-9-9-9c-5,0-9,4-9,9c0,5,4,9,9,9C53.7,68.1,57.7,64.1,57.7,59.1"/>
			</g>
			<g>
				<path class="st4" d="M61,59.1c0,5,4,9,9,9c5,0,9-4,9-9c0-5-4-9-9-9C65,50.1,61,54.2,61,59.1"/>
			</g>
			<g>
				<path class="st4" d="M69.3,87c-5,0-9,4-9,9c0,5,4.1,9,9,9c5,0,9-4,9-9C78.3,91,74.2,87,69.3,87"/>
			</g>
			<g>
				<path class="st4" d="M68,77.6c0-5-4-9-9-9c-5,0-9,4-9,9c0,5,4,9,9,9C64,86.6,68,82.5,68,77.6"/>
			</g>
			<g>
				<path class="st4" d="M80.3,68.6c-5,0-9,4.1-9,9c0,5,4,9,9,9c5,0,9-4,9-9C89.3,72.6,85.2,68.5,80.3,68.6"/>
			</g>
			<g>
				<path class="st4" d="M91.3,50.1c-5,0-9,4-9,9c0,5,4,9,9,9c5,0,9-4,9-9C100.3,54.1,96.2,50.1,91.3,50.1"/>
			</g>
		</g>
	</g>
</g>
</svg>
