<svg xmlns="http://www.w3.org/2000/svg" xmlns:xlink="http://www.w3.org/1999/xlink" viewBox="-18164.289 12763.833 1363.289 680.532">
  <defs>
    <style>
      .cls-1 {
        fill: url(#linear-gradient);
      }

      .cls-2 {
        fill: url(#pattern);
      }
    </style>
    <linearGradient id="linear-gradient" x1="0.5" x2="0.5" y2="1" gradientUnits="objectBoundingBox">
      <stop offset="0" stop-color="#741df7"/>
      <stop offset="1" stop-color="#f7941d"/>
    </linearGradient>
    <pattern id="pattern" preserveAspectRatio="xMidYMid slice" width="100%" height="100%" viewBox="0 0 750 500">
      <image width="750" height="500" xlink:href="../../img/photo-1469002372271-3406b43e1f27.jpg"/>
    </pattern>
  </defs>
  <g id="Group_96" data-name="Group 96" transform="translate(-18442 11956.765)">
    <path id="NoPath" class="cls-1" d="M575.4.653c376.259,0,675.839,86.666,675.839,261.144-1.619,79.806-62.87,137.189-121.518,158.267C1004.88,463.28,864,429.42,575.4,429.42c-193.02,0-396.776,113.8-520.794,73.193C-63.016,464.1,45.991,356.122,45.991,298.461,141.215,223.374-4.556,63.454,148.455,24.026,265.485-6.131,411.73.653,575.4.653Z" transform="translate(379.33 807.068) rotate(8)"/>
    <path id="NoPath-2" data-name="NoPath" class="cls-2" d="M681.723,0C1057.982,0,1362.862,66.246,1363,269.934S1057.982,539.868,681.723,539.868c-193.02,0-386.94,15.609-510.958-35.518C53.138,455.859-7.767,354.363.446,269.934,27.823,39.142,190.029,142.171,343.04,92.526,460.071,54.555,518.049,0,681.723,0Z" transform="translate(278 840.335)"/>
  </g>
</svg>
