<svg xmlns="http://www.w3.org/2000/svg" viewBox="-18630.172 -6342.865 59.672 12.846">
  <defs>
    <style>
      .cls-1 {
        fill: none;
        stroke: #897054;
      }
    </style>
  </defs>
  <path id="Union_3" data-name="Union 3" class="cls-1" d="M-1973.5,12h0L-1985,0Z" transform="translate(-20602.5 -6330.365) rotate(180)"/>
</svg>
