<?xml version="1.0" standalone="no"?>
<!DOCTYPE svg PUBLIC "-//W3C//DTD SVG 20010904//EN"
 "http://www.w3.org/TR/2001/REC-SVG-20010904/DTD/svg10.dtd">
<svg version="1.0" xmlns="http://www.w3.org/2000/svg"
 width="864.000000pt" height="864.000000pt" viewBox="0 0 864.000000 864.000000"
 preserveAspectRatio="xMidYMid meet">
<metadata>
Created by potrace 1.11, written by Peter Selinger 2001-2013
</metadata>
<g transform="translate(0.000000,864.000000) scale(0.100000,-0.100000)"
fill="#000000" stroke="none">
<path d="M3590 8629 c-253 -48 -435 -135 -639 -307 -36 -31 -72 -61 -78 -67
-7 -5 -26 -21 -41 -35 -34 -30 -73 -64 -172 -150 -41 -35 -82 -71 -91 -80 -9
-8 -38 -33 -64 -55 -46 -38 -110 -94 -164 -143 -14 -13 -40 -35 -59 -50 -30
-24 -60 -49 -127 -110 -11 -10 -51 -45 -90 -78 -38 -32 -74 -64 -80 -70 -5 -6
-39 -35 -75 -65 -35 -30 -69 -58 -76 -64 -6 -5 -35 -31 -65 -57 -30 -26 -70
-61 -89 -78 -19 -18 -52 -46 -73 -63 -21 -18 -54 -45 -72 -62 -38 -34 -40 -35
-144 -123 -41 -35 -80 -69 -86 -75 -7 -7 -25 -23 -41 -37 -16 -13 -65 -55
-109 -93 -44 -38 -102 -88 -130 -112 -27 -24 -60 -51 -71 -62 -22 -18 -111
-95 -144 -123 -10 -8 -34 -28 -54 -45 -21 -16 -54 -45 -74 -63 -20 -17 -68
-58 -107 -89 -109 -87 -204 -214 -234 -313 -27 -87 -32 -113 -34 -185 -1 -64
20 -182 34 -191 5 -3 9 -12 9 -20 0 -20 63 -117 107 -165 20 -21 43 -49 51
-61 9 -12 23 -29 31 -38 21 -22 59 -65 165 -190 49 -58 97 -112 105 -121 33
-33 61 -69 61 -78 0 -5 4 -11 9 -13 5 -1 38 -37 74 -80 35 -42 70 -82 76 -90
44 -51 348 -413 371 -442 8 -10 26 -31 40 -46 14 -16 39 -46 56 -67 113 -138
300 -359 306 -361 4 -2 8 -8 8 -13 0 -5 8 -17 18 -27 22 -24 32 -36 180 -218
67 -83 122 -154 122 -158 0 -3 -9 -6 -21 -6 -12 0 -49 -7 -83 -16 -33 -9 -72
-18 -86 -19 -14 -2 -39 -8 -57 -13 -29 -9 -35 -7 -67 24 -20 19 -36 38 -36 42
0 4 -23 32 -51 62 -62 67 -82 90 -139 160 -25 30 -57 68 -72 85 -41 47 -63 73
-100 117 -18 23 -44 53 -58 68 -14 15 -37 42 -52 61 -15 19 -48 57 -72 84 -24
28 -101 118 -170 200 -70 83 -144 169 -164 191 -20 23 -53 61 -72 85 -19 24
-44 53 -55 65 -11 11 -36 40 -56 65 -20 24 -45 54 -55 66 -11 12 -28 32 -39
45 -163 192 -265 312 -301 353 -73 84 -85 99 -117 138 -37 44 -43 46 -41 10 1
-16 3 -28 4 -28 2 0 4 -9 5 -20 3 -22 10 -62 30 -179 8 -44 12 -83 9 -87 -2
-4 0 -10 6 -14 5 -3 10 -21 10 -38 0 -18 4 -48 10 -67 5 -19 12 -55 14 -80 3
-25 11 -72 16 -105 6 -33 13 -76 16 -95 2 -19 6 -42 9 -50 2 -8 7 -37 11 -65
7 -58 11 -80 18 -103 3 -9 8 -37 11 -62 2 -25 7 -54 9 -65 10 -56 18 -103 22
-130 3 -16 6 -39 8 -50 2 -11 6 -33 9 -50 6 -27 11 -57 22 -140 2 -16 7 -41
10 -55 6 -26 12 -64 20 -115 9 -60 16 -101 26 -154 6 -30 12 -64 14 -75 3 -19
10 -64 21 -126 2 -14 6 -34 8 -45 2 -11 7 -42 10 -69 4 -27 9 -52 10 -55 2 -3
7 -28 10 -56 4 -27 9 -57 11 -65 2 -8 6 -31 9 -50 3 -19 8 -46 10 -60 3 -14
12 -65 20 -115 9 -49 18 -101 21 -115 5 -22 10 -58 20 -127 2 -12 6 -36 11
-55 4 -18 8 -42 10 -53 1 -11 3 -20 4 -20 1 0 3 -9 4 -20 6 -36 16 -100 21
-125 3 -14 8 -39 10 -55 3 -17 17 -84 31 -150 13 -66 27 -131 30 -145 7 -35
25 -92 35 -112 5 -10 9 -22 9 -27 0 -16 68 -155 95 -195 14 -20 25 -41 25 -46
0 -6 4 -10 8 -10 5 0 13 -8 18 -19 21 -43 125 -158 216 -238 88 -78 324 -213
370 -213 8 0 18 -4 23 -8 6 -5 327 -114 715 -242 388 -128 714 -236 725 -241
11 -5 119 -40 240 -79 121 -39 229 -75 240 -79 22 -9 154 -52 170 -56 5 -1 18
-5 27 -9 9 -4 22 -9 30 -10 7 -2 20 -6 28 -9 18 -7 111 -38 125 -41 6 -2 17
-5 25 -8 59 -22 145 -51 154 -52 6 -1 16 -4 21 -8 6 -3 26 -9 45 -13 19 -4 41
-11 50 -16 8 -4 44 -18 80 -29 36 -12 72 -24 80 -27 8 -4 17 -7 20 -8 3 -1 77
-25 164 -53 87 -29 173 -54 190 -57 17 -2 31 -4 31 -5 0 -6 176 -5 205 1 19 4
47 10 62 13 55 9 157 67 210 118 85 81 128 162 177 333 18 61 36 121 42 135 5
14 11 34 13 45 3 11 12 40 21 65 9 25 18 52 20 60 2 8 24 76 50 150 25 74 48
146 51 159 3 13 12 37 20 52 8 16 14 30 14 31 -1 2 1 10 4 18 15 46 97 297
100 305 2 6 4 12 5 15 0 3 24 70 51 150 42 119 99 289 105 310 1 3 7 18 13 33
7 16 12 32 12 37 0 5 5 21 12 37 6 15 12 30 13 33 1 3 4 12 8 20 3 8 11 33 17
55 6 22 16 49 21 60 5 11 26 72 48 135 59 173 137 396 143 406 4 7 18 52 22
74 1 3 6 13 11 22 9 14 27 0 122 -95 l111 -112 -30 -90 c-16 -49 -32 -97 -34
-105 -2 -8 -15 -49 -29 -90 -15 -41 -28 -82 -30 -90 -3 -8 -21 -62 -41 -120
-20 -58 -37 -112 -38 -122 -1 -9 -9 -33 -17 -55 -19 -46 -59 -162 -64 -183 -1
-8 -38 -121 -81 -250 -43 -129 -79 -239 -80 -245 -1 -5 -16 -50 -33 -100 -18
-49 -33 -97 -35 -105 -2 -8 -58 -179 -125 -380 -66 -201 -121 -369 -122 -375
0 -5 -5 -16 -11 -22 -6 -7 -8 -13 -4 -13 3 0 -3 -23 -14 -50 -22 -55 -18 -61
21 -27 15 12 46 38 69 57 24 19 48 40 54 45 6 6 47 40 91 75 43 36 86 72 95
80 9 8 37 33 64 55 27 22 56 47 66 55 10 8 39 33 66 55 26 22 58 49 70 60 13
11 36 30 52 42 16 12 40 33 53 45 14 13 59 50 99 83 41 33 85 69 97 80 24 22
49 43 112 95 23 19 53 44 65 55 12 11 44 38 70 60 27 22 58 48 70 58 11 11 41
35 65 55 25 21 52 44 61 52 8 8 40 35 70 60 30 25 67 56 82 70 14 14 41 36 58
49 18 14 45 36 60 50 16 14 47 42 71 61 23 19 53 45 68 58 14 13 44 37 65 55
21 18 52 44 68 59 16 16 31 28 33 28 2 0 17 12 33 27 16 16 52 47 80 71 28 23
72 62 98 85 52 47 70 62 133 115 24 20 53 47 64 60 11 12 24 22 29 22 16 0
113 71 148 109 108 114 144 162 198 263 17 31 36 65 41 75 42 77 94 240 108
338 13 87 11 375 -3 455 -8 47 -16 99 -19 115 -2 17 -11 68 -19 115 -8 47 -17
99 -19 115 -3 17 -8 41 -11 55 -3 14 -8 39 -10 55 -2 17 -6 41 -9 55 -4 14 -9
39 -11 55 -3 17 -10 57 -16 90 -6 33 -13 74 -15 90 -3 17 -7 41 -10 55 -7 31
-25 125 -31 165 -2 17 -7 41 -11 55 -3 14 -7 34 -9 45 -11 70 -15 95 -25 140
-11 51 -12 60 -23 130 -7 39 -11 62 -21 115 -10 50 -15 76 -20 105 -3 17 -10
55 -16 85 -6 30 -12 65 -14 77 -2 12 -6 34 -9 50 -4 15 -9 40 -11 56 -3 15 -7
38 -10 52 -11 56 -16 84 -31 165 -9 47 -18 94 -20 105 -2 11 -6 36 -9 55 -2
19 -9 50 -14 68 -5 18 -10 35 -10 37 1 6 -12 82 -18 110 -2 11 -6 36 -9 55 -2
19 -9 51 -14 70 -5 19 -12 53 -14 74 -3 21 -8 46 -10 55 -3 9 -7 32 -10 51 -3
19 -8 46 -11 60 -3 14 -8 41 -11 60 -3 19 -10 55 -15 80 -5 25 -14 70 -19 100
-5 30 -12 66 -15 80 -3 14 -8 36 -10 50 -7 45 -66 191 -85 210 -3 3 -19 23
-35 45 -99 133 -252 213 -415 217 -28 1 -147 -10 -170 -15 -24 -6 -82 -16
-120 -22 -46 -6 -91 -15 -110 -20 -8 -2 -35 -7 -60 -10 -50 -7 -85 -13 -85
-15 0 -1 -16 -3 -35 -6 -19 -2 -71 -11 -115 -19 -44 -8 -91 -16 -105 -19 -57
-9 -97 -16 -125 -20 -16 -3 -41 -7 -55 -10 -13 -3 -40 -8 -60 -11 -34 -5 -46
-7 -110 -19 -22 -5 -63 -11 -125 -21 -32 -5 -86 -15 -140 -25 -27 -5 -66 -12
-85 -14 -19 -3 -44 -7 -55 -10 -32 -6 -109 -19 -125 -21 -8 -1 -24 -4 -35 -8
-11 -3 -42 -8 -69 -12 -27 -3 -52 -8 -55 -9 -3 -2 -26 -7 -51 -10 -56 -8 -101
-15 -120 -21 -8 -3 -33 -7 -55 -10 -64 -10 -87 -14 -140 -25 -27 -6 -63 -12
-80 -14 -16 -2 -46 -7 -65 -10 -19 -4 -111 -20 -205 -37 -93 -16 -176 -31
-182 -34 -8 -2 -12 3 -10 13 5 30 80 257 89 268 5 6 27 15 51 19 23 4 51 10
62 12 56 10 283 53 305 57 14 3 26 5 28 7 3 2 12 4 65 13 56 9 73 12 143 26
28 6 64 13 80 16 16 3 85 16 154 29 69 13 139 27 155 30 17 2 41 7 55 10 23 5
84 17 150 30 14 3 36 7 50 10 14 2 39 7 55 10 17 3 41 7 55 10 14 3 36 8 50
10 14 2 36 7 50 10 14 3 41 8 60 11 19 4 44 9 55 11 11 2 35 6 54 9 19 2 37 6
40 8 4 3 25 7 47 10 42 7 73 12 114 21 91 20 173 35 210 41 19 3 42 7 50 10 8
3 29 8 45 10 17 2 41 6 55 9 14 3 39 8 55 10 17 3 59 11 95 19 36 8 68 12 73
9 4 -2 7 0 7 5 0 5 12 8 26 6 15 -1 23 1 18 6 -8 8 -219 91 -320 126 -23 7
-59 21 -80 31 -21 9 -43 18 -49 19 -5 1 -23 7 -40 14 -16 6 -30 10 -31 8 0 -2
-8 3 -17 11 -10 7 -17 11 -17 8 0 -4 -28 6 -62 22 -35 15 -65 28 -68 27 -5 0
-189 68 -225 84 -11 5 -83 32 -160 60 -77 28 -149 55 -160 60 -11 5 -177 68
-370 140 -192 72 -375 141 -405 153 -30 12 -57 22 -60 23 -3 0 -14 4 -25 8
-11 4 -72 27 -135 51 -63 24 -149 56 -190 71 -41 16 -77 29 -80 30 -3 0 -18 6
-33 12 -16 7 -30 12 -32 12 -2 0 -16 5 -32 12 -15 6 -32 12 -38 14 -19 5 -290
105 -310 114 -17 7 -47 18 -165 56 -8 3 -16 5 -17 5 -1 0 -31 12 -65 26 -58
24 -76 26 -223 28 -88 1 -180 -2 -205 -6z m530 -661 c8 -3 22 -7 30 -11 8 -3
60 -19 115 -37 55 -17 109 -35 120 -40 11 -5 72 -27 135 -50 63 -22 124 -44
135 -49 11 -5 93 -38 182 -73 90 -34 163 -66 163 -69 0 -5 -152 -41 -235 -56
-43 -7 -60 -11 -62 -13 -2 -2 -6 -3 -10 -4 -35 -9 -347 -75 -377 -80 -16 -3
-35 -11 -41 -18 -13 -14 -175 -437 -175 -456 0 -7 -4 -12 -10 -12 -5 0 -9 -3
-9 -7 1 -5 0 -11 -1 -15 -1 -5 -3 -11 -5 -15 -1 -5 -4 -15 -8 -23 -14 -35
-102 -270 -124 -330 -13 -36 -26 -72 -30 -80 -3 -8 -7 -17 -8 -20 -1 -3 -6
-16 -12 -30 -6 -14 -20 -52 -32 -85 -13 -33 -33 -87 -45 -120 -13 -33 -37 -96
-54 -140 -16 -44 -46 -122 -66 -172 -20 -51 -36 -95 -36 -98 0 -6 49 -1 115
12 17 3 39 7 50 8 11 2 48 8 82 15 35 6 75 13 90 16 16 2 44 7 63 10 19 4 42
8 50 9 8 1 31 4 50 8 19 4 51 9 70 12 35 6 128 22 165 29 34 6 109 19 130 22
18 2 33 5 120 20 17 3 39 7 50 9 11 1 34 5 50 8 17 3 48 8 70 12 23 3 52 8 65
10 109 23 96 31 241 -145 56 -69 107 -130 113 -136 6 -7 22 -26 36 -44 14 -17
34 -41 45 -54 11 -12 38 -44 60 -70 22 -27 45 -54 50 -60 6 -6 35 -40 64 -76
30 -36 61 -72 70 -81 9 -9 23 -25 31 -35 34 -43 106 -129 120 -144 8 -9 33
-37 55 -64 53 -63 51 -60 121 -141 33 -39 69 -81 80 -94 10 -13 37 -44 59 -68
43 -49 60 -69 89 -105 21 -25 131 -153 156 -180 8 -9 20 -23 25 -30 6 -7 37
-45 71 -83 33 -39 69 -80 80 -93 10 -13 28 -34 39 -47 11 -12 40 -46 65 -75
25 -29 52 -60 61 -69 8 -9 44 -50 80 -91 35 -41 69 -80 74 -86 6 -6 32 -37 59
-68 49 -58 91 -105 124 -141 10 -11 43 -49 73 -85 30 -36 59 -69 65 -75 6 -5
39 -44 75 -85 35 -41 69 -80 74 -86 6 -6 37 -41 69 -78 33 -37 71 -80 85 -95
14 -16 55 -61 91 -102 36 -40 94 -103 129 -139 97 -100 101 -106 101 -165 0
-86 -25 -140 -100 -214 -72 -72 -124 -119 -215 -196 -33 -27 -69 -59 -80 -70
-12 -11 -42 -37 -68 -58 -26 -21 -52 -43 -59 -50 -7 -7 -69 -59 -138 -117 -69
-57 -128 -109 -132 -114 -4 -6 -9 -8 -12 -5 -6 5 4 42 61 224 14 44 26 85 27
90 2 6 9 30 16 55 7 25 14 50 16 55 1 6 21 70 44 144 54 172 52 162 22 198
-15 17 -47 54 -72 83 -25 29 -49 58 -55 64 -5 6 -32 38 -60 71 -55 67 -70 84
-117 137 -18 21 -45 52 -60 70 -15 18 -39 47 -53 63 -14 17 -40 47 -58 68 -18
21 -41 49 -52 61 -11 12 -38 44 -60 70 -22 27 -49 58 -60 70 -11 12 -40 47
-65 76 -25 30 -56 66 -70 81 -14 15 -33 38 -44 51 -26 33 -147 174 -191 224
-11 12 -33 39 -49 58 -16 20 -33 36 -36 36 -4 0 -16 -26 -28 -57 -11 -32 -43
-123 -72 -203 -29 -80 -53 -149 -55 -155 -1 -5 -7 -23 -14 -40 -6 -16 -16 -43
-22 -60 -6 -16 -15 -39 -19 -50 -5 -11 -16 -42 -25 -70 -10 -27 -20 -57 -23
-65 -3 -8 -6 -18 -7 -22 -2 -5 -4 -10 -5 -13 -1 -3 -3 -8 -5 -12 -1 -5 -5 -15
-8 -23 -3 -8 -27 -73 -52 -145 -25 -71 -49 -137 -52 -145 -4 -8 -7 -17 -8 -20
-1 -3 -4 -12 -8 -20 -3 -8 -16 -45 -28 -82 l-24 -68 -50 -10 c-72 -15 -94 -19
-140 -26 -22 -3 -62 -10 -90 -16 -27 -5 -61 -11 -75 -13 -14 -2 -90 -15 -170
-30 -80 -14 -156 -28 -169 -30 -13 -2 -45 -8 -70 -12 -52 -8 -60 -10 -63 -13
-2 -1 -12 -3 -23 -4 -80 -11 -120 -18 -126 -22 -5 -3 -25 -7 -46 -9 -36 -4
-67 -9 -123 -20 -13 -2 -40 -7 -60 -10 -20 -3 -47 -8 -60 -10 -14 -3 -41 -8
-60 -11 -19 -2 -46 -7 -60 -10 -64 -12 -76 -14 -110 -19 -20 -3 -47 -8 -60
-11 -14 -3 -41 -7 -60 -9 -83 -10 -235 -40 -238 -47 -2 -5 -8 -6 -13 -2 -5 3
-33 1 -62 -5 -50 -10 -94 -18 -147 -26 -14 -2 -38 -7 -55 -10 -16 -3 -46 -8
-65 -11 -19 -3 -44 -8 -55 -10 -93 -16 -204 -36 -220 -38 -57 -9 -103 -17
-125 -21 -28 -6 -22 -5 -230 -41 -85 -14 -162 -27 -170 -29 -8 -1 -35 -6 -60
-10 -25 -4 -54 -9 -65 -11 -60 -12 -255 -46 -285 -50 -19 -3 -46 -7 -60 -9
-47 -10 -95 -18 -115 -21 -11 -1 -20 -3 -20 -4 0 -1 -9 -3 -20 -4 -11 -2 -72
-13 -135 -24 -63 -12 -131 -24 -150 -27 -19 -3 -44 -9 -55 -12 -65 -20 -149
-24 -185 -9 -93 39 -159 148 -166 276 -2 30 -5 66 -8 80 -2 14 -10 59 -16 100
-7 41 -14 84 -16 95 -3 11 -7 36 -10 55 -3 19 -19 103 -36 185 -17 83 -32 159
-34 170 -1 11 -10 46 -18 78 -21 78 -20 87 8 55 13 -16 51 -59 86 -98 34 -38
70 -78 79 -88 9 -11 44 -50 78 -88 34 -38 70 -78 80 -90 10 -12 47 -54 83 -94
36 -40 68 -77 71 -82 6 -9 60 -6 129 7 46 8 434 74 475 80 22 4 48 9 58 11 10
3 35 8 55 10 34 4 109 17 172 29 13 3 40 7 60 10 20 3 45 7 55 9 11 2 40 7 65
11 25 4 52 9 60 10 8 1 35 6 60 10 25 4 54 9 65 11 11 3 36 7 55 9 19 3 44 8
56 10 12 3 39 7 60 10 21 3 50 8 64 12 14 3 36 7 50 9 29 3 111 17 123 20 4 1
18 2 32 3 14 0 25 6 25 11 0 9 -71 101 -104 136 -24 25 -56 64 -56 69 0 3 -9
15 -20 28 -32 34 -43 47 -95 112 -26 32 -54 65 -61 73 -8 7 -14 16 -14 20 0 4
-19 27 -41 51 -23 25 -53 61 -67 80 -15 20 -37 47 -49 61 -43 49 -58 68 -88
106 -16 21 -38 46 -47 56 -10 10 -18 22 -18 27 0 5 -3 11 -7 13 -9 3 -105 117
-143 168 -14 19 -33 41 -42 49 -13 11 -14 18 -6 28 6 7 7 13 3 13 -4 0 -3 6 2
13 12 14 38 89 35 100 -1 4 2 7 6 7 5 0 9 6 9 13 1 6 12 41 26 77 13 36 43
117 67 180 23 63 47 126 52 140 5 14 9 25 8 25 0 0 12 32 29 72 16 39 27 74
23 77 -3 3 0 6 6 6 7 0 11 3 10 8 -3 10 23 85 35 100 5 6 7 12 3 12 -3 0 5 25
19 55 13 30 22 55 19 55 -2 0 3 14 12 31 8 17 17 38 19 47 3 18 109 302 124
337 5 11 17 43 26 70 10 28 21 59 25 70 23 58 120 317 125 335 4 16 100 274
112 300 3 8 7 18 8 23 2 4 4 9 5 12 1 3 3 8 5 13 1 4 5 14 8 22 4 8 22 60 42
115 19 55 38 107 42 115 3 8 7 17 7 20 3 10 78 216 86 235 5 11 57 153 115
315 58 162 109 302 112 310 20 52 118 338 138 402 30 97 38 112 78 142 54 41
97 54 167 51 36 -2 72 -5 80 -7z m-1131 -518 c-27 -80 -52 -152 -56 -160 -7
-18 -6 -14 -22 -70 -7 -25 -16 -49 -19 -55 -4 -5 -8 -17 -9 -26 -1 -9 -12 -37
-23 -63 -11 -26 -20 -56 -20 -65 0 -10 -3 -21 -7 -25 -5 -4 -8 -11 -9 -14 0
-4 -3 -14 -7 -22 -3 -8 -18 -51 -32 -95 -15 -44 -29 -87 -32 -95 -3 -8 -7 -19
-9 -25 -1 -5 -17 -48 -34 -95 -18 -47 -33 -89 -35 -95 -1 -5 -5 -17 -8 -25
-16 -43 -90 -255 -92 -264 -1 -6 -5 -20 -9 -31 -5 -11 -15 -38 -23 -60 -8 -22
-25 -71 -38 -110 -13 -38 -34 -99 -47 -135 -14 -36 -26 -69 -27 -75 -11 -33
-14 -43 -24 -70 -6 -16 -12 -34 -14 -40 -1 -5 -30 -89 -64 -185 -34 -96 -120
-348 -191 -560 -71 -212 -131 -386 -133 -388 -4 -4 -6 -1 -102 113 -32 38 -67
79 -78 91 -11 12 -34 39 -52 60 -17 22 -45 55 -63 74 -17 19 -46 53 -63 74
-18 21 -44 53 -60 70 -15 17 -53 62 -85 100 -31 39 -74 88 -96 110 -21 23 -50
56 -65 75 -26 35 -78 94 -136 156 -64 67 -95 105 -95 113 0 5 -9 17 -19 26
-11 10 -29 42 -42 72 -17 43 -21 67 -16 114 7 77 42 127 149 216 46 37 90 74
98 81 21 19 61 51 93 76 15 12 38 31 51 42 12 12 45 39 72 60 27 22 51 42 54
45 3 3 30 25 60 50 30 25 57 47 60 50 3 4 43 37 90 75 47 37 87 71 90 74 3 4
27 25 55 46 27 22 56 46 63 53 8 7 30 25 50 40 21 15 39 30 42 33 4 5 161 136
235 196 11 9 34 28 51 42 17 14 52 44 79 66 27 22 54 46 61 53 7 6 17 12 22
12 6 0 12 4 14 9 3 8 35 36 127 111 24 19 62 51 85 70 23 19 62 51 86 70 24
19 56 46 71 60 15 14 40 34 55 45 15 11 41 32 58 47 17 15 32 26 33 25 1 -1
-21 -68 -48 -147z m4198 -1023 c70 -17 161 -118 179 -198 2 -10 6 -29 9 -41 8
-30 15 -77 35 -208 6 -41 12 -86 15 -100 2 -14 6 -41 9 -60 3 -19 8 -46 10
-60 2 -14 10 -59 16 -100 6 -41 14 -86 16 -100 3 -14 7 -38 10 -55 3 -16 10
-55 15 -85 6 -30 11 -62 11 -70 0 -8 6 -46 13 -85 7 -38 13 -77 13 -85 1 -8
12 -76 25 -150 14 -74 27 -151 30 -170 3 -19 8 -46 11 -60 2 -14 10 -57 16
-97 6 -40 13 -83 16 -95 2 -13 6 -36 8 -53 5 -28 31 -183 42 -250 3 -16 19
-111 35 -210 39 -232 37 -222 44 -245 8 -26 -3 -25 -27 3 -11 12 -43 49 -71
81 -29 33 -60 69 -70 80 -44 52 -104 120 -127 146 -23 26 -83 94 -127 146 -37
43 -129 148 -153 174 -37 41 -77 85 -159 180 -41 47 -79 90 -85 96 -6 6 -33
37 -61 69 -27 32 -71 81 -96 109 -26 28 -59 67 -75 86 -16 19 -45 50 -64 70
-19 20 -60 65 -90 100 -30 35 -64 73 -75 84 -11 12 -60 66 -109 121 -85 96
-209 234 -251 281 -11 12 -58 64 -105 115 -47 51 -95 104 -108 118 -13 14 -59
64 -102 111 -119 129 -139 154 -133 163 3 5 11 6 18 3 7 -2 16 -2 19 2 7 6 19
9 66 16 14 3 54 11 90 19 36 8 72 15 80 15 8 0 42 7 75 15 33 9 74 18 90 20
28 5 101 19 170 34 17 3 41 7 55 9 14 1 25 3 25 4 0 2 26 8 120 24 17 3 41 8
55 11 14 3 39 7 55 10 17 3 44 8 60 12 17 3 37 7 45 8 8 1 42 6 75 10 33 5 69
9 80 11 11 1 20 3 20 4 0 3 39 11 80 17 22 3 42 7 45 10 6 6 154 -3 187 -10z
m-1887 -4240 c0 -7 -25 -89 -56 -182 -31 -94 -57 -174 -58 -180 -1 -5 -6 -23
-12 -40 -19 -52 -44 -129 -48 -150 -5 -19 -136 -404 -222 -650 -22 -61 -47
-123 -57 -138 -9 -15 -15 -27 -11 -27 10 0 -46 -72 -80 -102 -28 -25 -40 -32
-101 -53 -37 -13 -147 -5 -190 15 -21 9 -218 78 -245 86 -13 3 -115 39 -160
57 -20 8 -192 68 -205 71 -5 2 -14 4 -20 6 -5 1 -19 7 -30 13 -11 6 -24 12
-30 13 -5 1 -62 21 -125 44 -63 23 -128 46 -145 52 -16 5 -38 14 -49 19 -10 6
-26 12 -35 14 -19 4 -361 130 -406 150 -16 7 -41 16 -55 20 -29 8 -333 121
-460 170 -47 18 -157 61 -245 94 -88 34 -168 66 -177 71 -10 6 -28 10 -40 10
-17 0 -19 3 -10 12 6 6 22 13 34 15 44 6 272 48 320 58 15 4 39 8 55 10 15 2
37 6 48 8 11 3 40 8 65 12 25 4 54 9 65 12 11 2 29 6 40 7 23 4 129 24 165 31
14 3 41 8 60 11 19 3 43 7 53 10 19 6 62 12 113 18 17 2 36 6 43 10 7 4 18 5
26 2 8 -3 15 -2 15 3 0 4 6 8 13 8 16 0 88 12 107 18 8 2 33 6 55 9 22 4 51 8
65 11 14 2 36 7 50 9 20 3 150 28 221 41 9 2 34 6 55 9 22 4 46 8 54 11 8 2
31 6 50 9 19 3 44 7 55 10 11 2 58 11 105 20 47 9 96 18 110 21 13 2 42 7 64
11 22 3 43 7 46 9 3 2 21 6 40 9 19 3 45 8 56 10 12 2 39 7 60 10 22 4 46 8
54 11 8 2 31 6 50 9 19 3 46 8 60 11 76 15 92 18 170 31 47 8 65 12 65 14 0 1
14 3 30 5 17 3 73 13 125 24 52 11 98 17 102 15 5 -3 8 -1 8 3 0 5 8 9 18 9
20 1 90 13 112 19 20 6 67 15 110 22 19 3 37 7 39 9 9 8 21 3 21 -9z"/>
</g>
</svg>
