<?xml version="1.0" standalone="no"?>
<!DOCTYPE svg PUBLIC "-//W3C//DTD SVG 20010904//EN"
 "http://www.w3.org/TR/2001/REC-SVG-20010904/DTD/svg10.dtd">
<svg version="1.0" xmlns="http://www.w3.org/2000/svg"
 width="319.000000pt" height="319.000000pt" viewBox="0 0 319.000000 319.000000"
 preserveAspectRatio="xMidYMid meet">
<metadata>
Created by potrace 1.11, written by Peter Selinger 2001-2013
</metadata>
<g transform="translate(0.000000,319.000000) scale(0.100000,-0.100000)"
fill="#000000" stroke="none">
<path d="M625 3173 c-358 -52 -557 -228 -614 -543 -6 -34 -10 -371 -9 -865 0
-808 1 -824 33 -980 10 -46 63 -174 100 -240 131 -233 414 -424 729 -491 70
-14 70 -14 165 17 204 66 431 194 551 311 60 58 141 171 129 182 -2 2 -25 1
-51 -3 -71 -11 -210 -5 -270 13 -122 35 -215 120 -259 236 -11 30 -29 98 -39
150 -17 86 -19 151 -20 683 l0 587 145 0 145 0 0 274 0 273 -142 -1 -143 -1
-3 208 -2 208 -178 -2 c-97 -1 -217 -8 -267 -16z"/>
<path d="M2397 2773 c-1 -1 -22 -4 -45 -8 -238 -35 -441 -194 -520 -406 -33
-89 -45 -220 -30 -334 8 -63 14 -89 77 -360 42 -176 46 -194 61 -283 5 -30 11
-61 14 -70 6 -21 15 -78 24 -157 9 -83 9 -361 -1 -410 -53 -274 -228 -483
-525 -630 -48 -23 -103 -48 -123 -55 -29 -11 -35 -17 -31 -36 l4 -23 297 3
c163 2 307 6 321 9 14 3 48 8 75 11 282 34 572 143 729 276 201 169 288 366
282 640 -2 64 -5 121 -8 126 -3 5 -9 36 -13 69 -8 78 -15 126 -20 145 -2 8 -7
31 -10 50 -3 19 -8 42 -10 50 -2 8 -7 35 -10 60 -3 25 -11 63 -17 85 -5 22
-12 51 -14 65 -3 14 -17 81 -31 150 -35 163 -36 287 -3 354 38 79 118 123 233
130 32 2 62 8 66 14 5 8 7 482 2 527 -1 6 -137 10 -387 10 -212 0 -386 -1
-387 -2z"/>
</g>
</svg>
