<svg id="Group_78" data-name="Group 78" xmlns="http://www.w3.org/2000/svg" viewBox="0 0 35.369 35.545">
  <defs>
    <style>
      .cls-1 {
        fill: #006295;
      }

      .cls-2 {
        fill: #fff;
      }
    </style>
  </defs>
  <path id="Path_89" data-name="Path 89" class="cls-1" d="M32.978,0H2.567A2.614,2.614,0,0,0,0,2.567V32.978a2.614,2.614,0,0,0,2.567,2.567H32.78a2.614,2.614,0,0,0,2.567-2.567V2.567A2.332,2.332,0,0,0,32.978,0Z"/>
  <path id="Path_90" data-name="Path 90" class="cls-2" d="M2.895,10.794H8.227V27.776H2.895ZM5.462,2.5A2.908,2.908,0,0,1,8.424,5.462,2.908,2.908,0,0,1,5.462,8.424,2.7,2.7,0,0,1,2.5,5.462,2.908,2.908,0,0,1,5.462,2.5" transform="translate(2.437 2.437)"/>
  <path id="Path_91" data-name="Path 91" class="cls-2" d="M7,6.895h5.134v2.37h0A5.474,5.474,0,0,1,17.071,6.5c5.332,0,6.319,3.555,6.319,8.1v9.281H18.058V15.584c0-1.975,0-4.542-2.765-4.542s-3.16,2.172-3.16,4.344V23.68H7Z" transform="translate(6.823 6.336)"/>
</svg>
