<svg id="icone_LYNFA" data-name="icone LYNFA" xmlns="http://www.w3.org/2000/svg" width="199.59" height="21.72" viewBox="0 0 199.59 21.72">
  <metadata><?xpacket begin="﻿" id="W5M0MpCehiHzreSzNTczkc9d"?>
<x:xmpmeta xmlns:x="adobe:ns:meta/" x:xmptk="Adobe XMP Core 5.6-c138 79.159824, 2016/09/14-01:09:01        ">
   <rdf:RDF xmlns:rdf="http://www.w3.org/1999/02/22-rdf-syntax-ns#">
      <rdf:Description rdf:about=""/>
   </rdf:RDF>
</x:xmpmeta>
                                                                                                    
                                                                                                    
                                                                                                    
                                                                                                    
                                                                                                    
                                                                                                    
                                                                                                    
                                                                                                    
                                                                                                    
                                                                                                    
                                                                                                    
                                                                                                    
                                                                                                    
                                                                                                    
                                                                                                    
                                                                                                    
                                                                                                    
                                                                                                    
                                                                                                    
                                                                                                    
                           
<?xpacket end="w"?></metadata>
<defs>
    <style>
      .cls-1 {
        fill: #9b9b9b;
        fill-rule: evenodd;
      }
    </style>
  </defs>
  <path id="Icon_64x64" data-name="Icon 64x64" class="cls-1" d="M1049.31,4019.4l-0.54-2.36a6.591,6.591,0,0,0-4.25-4.7l-1.17-.42a6.8,6.8,0,0,0,1.14-3.81c0-5.05-2.84-6.11-5.22-6.11s-5.23,1.06-5.23,6.11a6.7,6.7,0,0,0,1.12,3.76l-1.3.47a6.591,6.591,0,0,0-4.25,4.7l-0.54,2.36a2.653,2.653,0,0,0,.51,2.25,2.846,2.846,0,0,0,2.23,1.06h14.76a2.846,2.846,0,0,0,2.23-1.06,2.62,2.62,0,0,0,.51-2.25h0Zm-11.13-5.31-1.85,2.07a2.938,2.938,0,0,1-1.74-2.71l1.47-.52a4.915,4.915,0,0,0,2.12,1.16h0Zm4.25-1.12,1.37,0.48a2.985,2.985,0,0,1-1.75,2.71l-1.82-2.04a4.818,4.818,0,0,0,2.2-1.15h0Zm-3.16-9.68c2.68,0,3.93,1.54,3.93,4.82,0,2.66-1.77,4.82-3.93,4.82s-3.93-2.16-3.93-4.82c0-3.28,1.25-4.82,3.93-4.82h0Zm8.52,17.55a1.548,1.548,0,0,1-1.22.57h-14.76a1.528,1.528,0,0,1-1.21-.57,1.3,1.3,0,0,1-.27-1.15l0.54-2.36a5.274,5.274,0,0,1,2.46-3.32,4.263,4.263,0,0,0,3.01,3.53,0.555,0.555,0,0,0,.17.03,0.677,0.677,0,0,0,.49-0.22l2.19-2.45,2.2,2.45a0.639,0.639,0,0,0,.48.22,0.555,0.555,0,0,0,.17-0.03,4.263,4.263,0,0,0,3.01-3.53,5.274,5.274,0,0,1,2.46,3.32l0.54,2.36a1.326,1.326,0,0,1-.26,1.15h0Z" transform="translate(-1028.97 -4002)"/>
  <path id="Icon_64x64-2" data-name="Icon 64x64" class="cls-1" d="M1225.02,4011.76v-6.04h2.89a0.645,0.645,0,1,0,0-1.29h-2.89v-1.78a0.645,0.645,0,1,0-1.29,0v1.78h-4.9v-1.78a0.645,0.645,0,1,0-1.29,0v1.84a4.274,4.274,0,0,0-3.54,4.2v0.07a4.242,4.242,0,0,0,3.54,4.17v6.05h-2.89a0.65,0.65,0,1,0,0,1.3h2.89v1.78a0.645,0.645,0,1,0,1.29,0v-1.78h4.9v1.78a0.645,0.645,0,1,0,1.29,0v-1.84a4.562,4.562,0,0,0,3.54-4.51,3.948,3.948,0,0,0-3.54-3.95h0Zm-7.48-.15a2.946,2.946,0,0,1-2.25-2.85v-0.07a2.98,2.98,0,0,1,2.25-2.88v5.8h0Zm1.29,1.39h4.9v5.98h-4.9V4013Zm0-7.28h4.9v5.99h-4.9v-5.99Zm6.19,13.17v-5.83a2.665,2.665,0,0,1,2.24,2.68,3.307,3.307,0,0,1-2.24,3.15h0Z" transform="translate(-1028.97 -4002)"/>
  <path id="Icon_64x64-3" data-name="Icon 64x64" class="cls-1" d="M1188.14,4017.6l-5.76-5.76q1.98-1.89,4.01-3.71l0.03-.03a1.946,1.946,0,0,0,.44-0.68l1.26-3.43a1.351,1.351,0,0,0-.16-1.26,1.4,1.4,0,0,0-1.6-.5l-3.43,1.27a2.148,2.148,0,0,0-.68.44,0.022,0.022,0,0,1-.02.02l-0.49.55c-1.05,1.17-2.12,2.32-3.21,3.47l-4.03-4.04a1.9,1.9,0,0,0-.68-0.44l-3.71-1.44c-0.03-.01-0.06-0.01-0.08-0.02a1.309,1.309,0,0,0-1.58,1.59c0.01,0.02.02,0.05,0.03,0.07l1.42,3.72a1.815,1.815,0,0,0,.44.68l4.06,4.08q-2.355,2.31-4.79,4.52l-1.02.93a1.974,1.974,0,0,0-.03,2.79l1.4,1.4a1.928,1.928,0,0,0,1.37.56,2.021,2.021,0,0,0,1.42-.58c0.01-.01.01-0.02,0.02-0.03l0.43-.48c1.62-1.8,3.29-3.58,4.99-5.32l5.79,5.8a1.9,1.9,0,0,0,1.38.57h0a1.936,1.936,0,0,0,1.38-.57l1.4-1.4a1.968,1.968,0,0,0,0-2.77h0Zm-1.3-14.16a0.082,0.082,0,0,1,.06.04,0.066,0.066,0,0,1,.01.06l-0.6,1.63-1.13-1.12,1.66-.61h0Zm-3.66,1.4a0.666,0.666,0,0,1,.21-0.13l0.46-.17,1.96,1.97-0.16.45a0.744,0.744,0,0,1-.14.22c-0.09.08-.18,0.17-0.28,0.25l-2.3-2.31,0.25-.28h0Zm-11.93,2.35a0.594,0.594,0,0,1-.14-0.23l-1-2.6,0.66-.65,2.59,1a0.636,0.636,0,0,1,.22.14l0.02,0.02-2.33,2.33-0.02-.01h0Zm0.93,0.93,2.33-2.34,3.13,3.13c-0.77.8-1.54,1.58-2.32,2.35l-3.14-3.14h0Zm0.06,12.31-0.42.46a0.693,0.693,0,0,1-.94.02l-1.4-1.4a0.693,0.693,0,0,1,0-.94l1-.91c0.13-.12.26-0.24,0.39-0.35l2.2,2.21c-0.28.3-.55,0.6-0.83,0.91h0Zm1.7-1.87-2.12-2.13c3.55-3.29,6.98-6.77,10.24-10.35l2.21,2.22c-3.58,3.26-7.04,6.7-10.33,10.26h0Zm9.12,0.46-3.96-3.97c0.78-.78,1.56-1.55,2.35-2.32,0,0.01.01,0.01,0.01,0.02l3.93,3.94-2.33,2.33h0Zm4.16,0.43-1.4,1.4a0.629,0.629,0,0,1-.46.2,0.651,0.651,0,0,1-.47-0.2l-0.91-.91,2.33-2.34,0.91,0.92a0.652,0.652,0,0,1,0,.93h0Zm-7.68-9.55-2.63,2.58a0.658,0.658,0,0,0,0,.92,0.619,0.619,0,0,0,.46.19,0.644,0.644,0,0,0,.45-0.18l2.63-2.59a0.649,0.649,0,0,0,.01-0.92,0.658,0.658,0,0,0-.92,0" transform="translate(-1028.97 -4002)"/>
  <path id="Icon_64x64-4" data-name="Icon 64x64" class="cls-1" d="M1096.09,4010.6h-2.56v-3.94a0.647,0.647,0,0,0-.18-0.44l-2.84-3.02a0.673,0.673,0,0,0-.48-0.2h-9.18a0.647,0.647,0,0,0-.64.65v9.48h-2.56a0.647,0.647,0,0,0-.65.64v9.29a0.649,0.649,0,0,0,.65.65h15.23a0.649,0.649,0,0,0,.65-0.65v-3.57h2.56a0.649,0.649,0,0,0,.65-0.65v-7.6a0.647,0.647,0,0,0-.65-0.64h0Zm-1.17,1.29-3.33,2.94-3.32-2.94h6.65Zm-2.69-4.97v0.3h-2.71v-2.93h0.24l2.47,2.63h0Zm-11.38,15.49h-2.56v-7.99h4.32v7.99h-1.76Zm11.38,0h-8.32v-8.64a0.647,0.647,0,0,0-.65-0.64h-1.76v-8.84h6.73v3.58a0.638,0.638,0,0,0,.64.64h3.36v2.09h-5.76a0.647,0.647,0,0,0-.65.64v7.6a0.649,0.649,0,0,0,.65.65h5.76v2.92h0Zm-5.12-4.22v-5.6l4.06,3.59a0.614,0.614,0,0,0,.42.16,0.621,0.621,0,0,0,.43-0.16l3.42-3.02v5.03h-8.33Z" transform="translate(-1028.97 -4002)"/>
  <path id="Icon_64x64-5" data-name="Icon 64x64" class="cls-1" d="M1122.65,4013.09h11.59a0.629,0.629,0,0,0,.41-0.15l7-5.8a0.622,0.622,0,0,0,.19-0.71,0.634,0.634,0,0,0-.6-0.43h-11.59a0.655,0.655,0,0,0-.42.15l-7,5.8a0.647,0.647,0,0,0,.42,1.14h0Zm7.23-5.8h9.56l-5.44,4.51h-9.56l5.44-4.51h0Zm-7.23,9.42h12.82a0.652,0.652,0,0,0,.43-0.16l6.17-5.55a0.637,0.637,0,0,0,.05-0.91,0.647,0.647,0,0,0-.91-0.05l-5.99,5.38h-12.57a0.645,0.645,0,1,0,0,1.29m19.89-2.42a0.638,0.638,0,0,0-.91-0.05l-5.6,5.02h-13.38a0.65,0.65,0,1,0,0,1.3h13.63a0.631,0.631,0,0,0,.43-0.17l5.78-5.19a0.638,0.638,0,0,0,.05-0.91" transform="translate(-1028.97 -4002)"/>
</svg>
