<svg id="Group_556" data-name="Group 556" xmlns="http://www.w3.org/2000/svg" viewBox="0 0 114.742 114.422">
  <defs>
    <style>
      .cls-1 {
        fill: #005ca9;
      }

      .cls-2 {
        fill: #fff;
      }

      .cls-3 {
        fill: #e42113;
      }
    </style>
  </defs>
  <g id="Group_63" data-name="Group 63" transform="translate(0)">
    <path id="Path_73" data-name="Path 73" class="cls-1" d="M28.019,106.7H80.97l19.121-44a16.647,16.647,0,0,0,0-14.161L84.918,12.495H110.31l3.716,7.724H96.763l10.3,24.459s5.574,8.86.464,20.749L86.08,114.422H22.833L1.854,66.563a28.666,28.666,0,0,1,.7-22.112L19.117,5.907S21.672,0,29.645,0H105.2l3.484,7.951H29.877s-2.322-.227-3.251,1.59L9.131,49.9S6.111,55.583,9.6,63.61Z" transform="translate(0.019)"/>
    <path id="Path_74" data-name="Path 74" class="cls-2" d="M112.625,15.116H87.234l15.173,36.046a16.706,16.706,0,0,1,0,14.161l-19.121,44H30.335L11.91,66.156c-3.484-7.951-.464-13.706-.464-13.706l17.5-40.362c.929-1.817,3.251-1.59,3.251-1.59H111Z" transform="translate(-2.296 -2.546)"/>
  </g>
  <rect id="Rectangle_120" data-name="Rectangle 120" class="cls-3" width="9.909" height="29.533" transform="translate(21.613 32.259)"/>
  <path id="Path_75" data-name="Path 75" class="cls-3" d="M97.092,51.46,94,62.062h6.193ZM81.3,72.133,92.138,42.6H102.2l10.838,29.533h-9.831L102.047,68.2H92.138l-1.161,3.938Z" transform="translate(-18.348 -10.341)"/>
  <g id="Group_64" data-name="Group 64" transform="translate(20.761 23.096)">
    <path id="Path_76" data-name="Path 76" class="cls-3" d="M74.868,53.873A16.442,16.442,0,0,0,58.689,41a16.133,16.133,0,1,0,16.1,19.613L64.65,60.537a7.073,7.073,0,1,1,.387-6.815Z" transform="translate(-30.278 -33.049)"/>
    <path id="Path_77" data-name="Path 77" class="cls-1" d="M26.8,91.553s8.825-2.878,14.476-2.878c0,0,1.781-.227,8.051,1.515A33.339,33.339,0,0,0,60.4,92.008s2.942.227,9.212-1.363c0,0,6.658-2.045,10.528-2.045a54.7,54.7,0,0,1,14.476,3.1l-3.174,7.27A24.975,24.975,0,0,0,80.989,96.7,44.29,44.29,0,0,0,70.926,97.99,37.356,37.356,0,0,1,59.7,99.807s-3.174.076-9.522-1.817a24.722,24.722,0,0,0-13.315-.833l-6.89,1.59Z" transform="translate(-26.8 -44.603)"/>
    <path id="Path_78" data-name="Path 78" class="cls-1" d="M32.9,106.45a23.425,23.425,0,0,1,9.909-2.65s3.174-.151,10.528,2.2a35.72,35.72,0,0,0,8.361,1.136s2.787.151,9.909-1.59A36.229,36.229,0,0,1,81.748,103.8a32.84,32.84,0,0,1,9.444,2.5l-3.251,7.648a15.756,15.756,0,0,0-7.432-2.12,42.192,42.192,0,0,0-9.212,1.742,27.913,27.913,0,0,1-9.522,1.363,31.421,31.421,0,0,1-10.838-1.969,22.115,22.115,0,0,0-7.432-1.287s-5.032.606-7.2,2.423Z" transform="translate(-28.178 -48.292)"/>
    <path id="Path_79" data-name="Path 79" class="cls-1" d="M138.845,38.83V36.71h.619a1.171,1.171,0,0,1,.542.076.691.691,0,0,1,.464.454c0,.151.077.379.077.682,0,.379.077.606.077.833h1.548V37.77a1.6,1.6,0,0,0-.542-1.363,2.211,2.211,0,0,0-.852-.3,2.639,2.639,0,0,0,1.084-.379,1.215,1.215,0,0,0,.387-1.06,1.536,1.536,0,0,0-.852-1.439,2.609,2.609,0,0,0-1.161-.3H137.3V38.83h1.548Zm1.781-4.013a.732.732,0,0,1-.31.682,1.413,1.413,0,0,1-.852.227h-.619V33.983h.387a2.945,2.945,0,0,1,.929.151.767.767,0,0,1,.464.682m4.413,1.06a5.358,5.358,0,0,0-5.419-5.377,5.077,5.077,0,0,0-3.716,1.439,5,5,0,0,0-1.7,3.862,5.261,5.261,0,0,0,1.548,3.786,5.2,5.2,0,0,0,3.871,1.515,5.455,5.455,0,0,0,3.793-1.515,4.656,4.656,0,0,0,1.626-3.711m-5.419-4.392a4.434,4.434,0,0,1,3.174,1.287,4.243,4.243,0,0,1,1.316,3.1,3.967,3.967,0,0,1-1.316,3.1,4.145,4.145,0,0,1-3.174,1.287,4.434,4.434,0,0,1-3.174-1.287,4.29,4.29,0,0,1-1.316-3.181,4.075,4.075,0,0,1,1.316-3.1,4.707,4.707,0,0,1,3.174-1.212" transform="translate(-51.058 -30.5)"/>
  </g>
</svg>
