<svg xmlns="http://www.w3.org/2000/svg" viewBox="0 0 304 36">
  <defs>
    <style>
      .cls-1 {
        fill: #fff;
        font-size: 30px;
        font-family: LibreFranklin-Light, Libre Franklin;
        font-weight: 300;
      }

      .cls-2 {
        font-family: LibreFranklin-Bold, Libre Franklin;
        font-weight: 700;
      }
    </style>
  </defs>
  <text id="LIFEPERFORMANCE" class="cls-1" transform="translate(0 29)"><tspan x="0" y="0">LIFE</tspan><tspan class="cls-2" y="0">PERFORMANCE</tspan></text>
</svg>
