{

  "prodName": "Cement project",
  "colorName": "<strong>color-10</strong> work",
  "spessori": [
    {
      "logo": "kerlite",
      "abstract": "Spessore 5,5mm. Ideale sia per nuove costruzioni anche per la commerciali soggetti posa in ambienti a tra co intenso,  che per ristrutturazioni con posa in sovrapposizione a pavimenti preesistenti.",
      "detailGroups": [
        {
          "label": "Formati",
          "items": [
            {
              "img": "components/color-grid/img/60x120.svg",
              "formato": "60x120cm",
              "spessori": "5 spessori",
              "finiture": "6 finiture"
            },
            {
              "img": "components/color-grid/img/50x150.svg",
              "formato": "50x150cm",
              "spessori": "5 spessori",
              "finiture": "6 finiture"
            }
          ]
        },
        {
          "label": "Pezzi speciali",
          "items": [
            {
              "img": "components/color-grid/img/60x15.svg",
              "formato": "60x15cm",
              "spessori": "5 spessori",
              "finiture": "6 finiture"
            },
            {
              "img": "components/color-grid/img/60x30.svg",
              "formato": "60x30cm",
              "spessori": "5 spessori",
              "finiture": "6 finiture"
            }
          ]
        }
      ]
    },
    {
      "logo": "20mm",
      "abstract": "Solo una cottura lunga oltre il doppio della media del gres tradizionale di spessore 10 mm e temperature così elevate consentono una perfetta greificazione della massa. Questo si traduce in resistenza e inalterabilità delle superfici nel tempo.",
      "detailGroups": [
        {
          "label": "Formati",
          "items": [
            {
              "img": "components/color-grid/img/60x120.svg",
              "formato": "60x120cm",
              "spessori": "5 spessori",
              "finiture": "6 finiture"
            }
          ]
        },
        {
          "label": "Pezzi speciali",
          "items": [
            {
              "img": "components/color-grid/img/60x15.svg",
              "formato": "60x15cm",
              "spessori": "5 spessori",
              "finiture": "6 finiture"
            },
            {
              "img": "components/color-grid/img/60x30.svg",
              "formato": "60x30cm",
              "spessori": "5 spessori",
              "finiture": "6 finiture"
            }
          ]
        }
      ]
    }
  ],
  "gallery": [
    {
      "thumb": "components/color-grid/img/gall-0.jpg",
      "zoom": "components/color-grid/img/gall-0.jpg",
      "desc": "gall-0"
    },
    {
      "thumb": "components/color-grid/img/gall-1.jpg",
      "zoom": "components/color-grid/img/gall-1.jpg",
      "desc": "gall-0"
    },
    {
      "thumb": "components/color-grid/img/gall-2.jpg",
      "zoom": "components/color-grid/img/gall-2.jpg",
      "desc": "gall-0"
    }
  ]

}