[
  {
    "id": "blu",
    "label": "<strong>Cromo Basic</strong> Grezzo",
    "abstract": "Lorem ipsum dolor sit amet, consectetur adipiscing elit. Suspendisse ultricies posuere orci, ut sagittis neque commodo nec. Curabitur sed urna viverra, euismod ipsum at, tincidunt orci. Etiam varius et elit at pellentesque. ",
    "button": {
      "href": "/",
      "text": "vai alla scheda"
    },
    "catalog": {
      "href": "/",
      "image": "components/color-grid/img/catalog.jpg",
      "cta": "scarica il catalogo"
    },
    "thumb": "components/color-grid/img/c-0.jpg",
    "zoom": "components/color-grid/img/zoom.jpg",
    "detailsJSON": "pages/scheda/data/color-30_work.json"
  },
  {
    "id": "blu",
    "label": "<strong>Cromo Basic</strong> Grezzo",
    "abstract": "Lorem ipsum dolor sit amet, consectetur adipiscing elit. Suspendisse ultricies posuere orci, ut sagittis neque commodo nec. Curabitur sed urna viverra, euismod ipsum at, tincidunt orci. Etiam varius et elit at pellentesque. ",
    "button": {
      "href": "/",
      "text": "vai alla scheda"
    },
    "catalog": {
      "href": "/",
      "image": "components/color-grid/img/catalog.jpg",
      "cta": "scarica il catalogo"
    },
    "thumb": "components/color-grid/img/c-1.jpg",
    "zoom": "components/color-grid/img/zoom.jpg",
    "detailsJSON": "pages/scheda/data/color-20_work.json"
  },
  {
    "id": "blu",
    "label": "<strong>Cromo Basic</strong> Grezzo",
    "abstract": "Lorem ipsum dolor sit amet, consectetur adipiscing elit. Suspendisse ultricies posuere orci, ut sagittis neque commodo nec. Curabitur sed urna viverra, euismod ipsum at, tincidunt orci. Etiam varius et elit at pellentesque. ",
    "button": {
      "href": "/",
      "text": "vai alla scheda"
    },
    "catalog": {
      "href": "/",
      "image": "components/color-grid/img/catalog.jpg",
      "cta": "scarica il catalogo"
    },
    "thumb": "components/color-grid/img/c-2.jpg",
    "zoom": "components/color-grid/img/zoom.jpg",
    "detailsJSON": "pages/scheda/data/color-10_work.json"
  },

  {
    "id": "blu",
    "label": "<strong>Cromo Basic</strong> Grezzo",
    "abstract": "Lorem ipsum dolor sit amet, consectetur adipiscing elit. Suspendisse ultricies posuere orci, ut sagittis neque commodo nec. Curabitur sed urna viverra, euismod ipsum at, tincidunt orci. Etiam varius et elit at pellentesque. ",
    "button": {
      "href": "/",
      "text": "vai alla scheda"
    },
    "catalog": {
      "href": "/",
      "image": "components/color-grid/img/catalog.jpg",
      "cta": "scarica il catalogo"
    },
    "thumb": "components/color-grid/img/c-3.jpg",
    "zoom": "components/color-grid/img/zoom.jpg",
    "detailsJSON": "pages/scheda/data/color-30_cem.json"
  },
  {
    "id": "blu",
    "label": "<strong>Cromo Basic</strong> Grezzo",
    "abstract": "Lorem ipsum dolor sit amet, consectetur adipiscing elit. Suspendisse ultricies posuere orci, ut sagittis neque commodo nec. Curabitur sed urna viverra, euismod ipsum at, tincidunt orci. Etiam varius et elit at pellentesque. ",
    "button": {
      "href": "/",
      "text": "vai alla scheda"
    },
    "catalog": {
      "href": "/",
      "image": "components/color-grid/img/catalog.jpg",
      "cta": "scarica il catalogo"
    },
    "thumb": "components/color-grid/img/c-3.jpg",
    "zoom": "components/color-grid/img/zoom.jpg",
    "detailsJSON": "pages/scheda/data/color-20_cem.json"
  },
  {
    "id": "blu",
    "label": "<strong>Cromo Basic</strong> Grezzo",
    "abstract": "Lorem ipsum dolor sit amet, consectetur adipiscing elit. Suspendisse ultricies posuere orci, ut sagittis neque commodo nec. Curabitur sed urna viverra, euismod ipsum at, tincidunt orci. Etiam varius et elit at pellentesque. ",
    "button": {
      "href": "/",
      "text": "vai alla scheda"
    },
    "catalog": {
      "href": "/",
      "image": "components/color-grid/img/catalog.jpg",
      "cta": "scarica il catalogo"
    },
    "thumb": "components/color-grid/img/c-0.jpg",
    "zoom": "components/color-grid/img/zoom.jpg",
    "detailsJSON": "pages/scheda/data/color-10_cem.json"
  },

  {
    "id": "blu",
    "label": "<strong>Cromo Basic</strong> Grezzo",
    "abstract": "Lorem ipsum dolor sit amet, consectetur adipiscing elit. Suspendisse ultricies posuere orci, ut sagittis neque commodo nec. Curabitur sed urna viverra, euismod ipsum at, tincidunt orci. Etiam varius et elit at pellentesque. ",
    "button": {
      "href": "/",
      "text": "vai alla scheda"
    },
    "catalog": {
      "href": "/",
      "image": "components/color-grid/img/catalog.jpg",
      "cta": "scarica il catalogo"
    },
    "thumb": "components/color-grid/img/c-1.jpg",
    "zoom": "components/color-grid/img/zoom.jpg",
    "detailsJSON": "pages/scheda/data/color-30_land.json"
  },
  {
    "id": "blu",
    "label": "<strong>Cromo Basic</strong> Grezzo",
    "abstract": "Lorem ipsum dolor sit amet, consectetur adipiscing elit. Suspendisse ultricies posuere orci, ut sagittis neque commodo nec. Curabitur sed urna viverra, euismod ipsum at, tincidunt orci. Etiam varius et elit at pellentesque. ",
    "button": {
      "href": "/",
      "text": "vai alla scheda"
    },
    "catalog": {
      "href": "/",
      "image": "components/color-grid/img/catalog.jpg",
      "cta": "scarica il catalogo"
    },
    "thumb": "components/color-grid/img/c-2.jpg",
    "zoom": "components/color-grid/img/zoom.jpg",
    "detailsJSON": "pages/scheda/data/color-20_land.json"
  },
  {
    "id": "blu",
    "label": "<strong>Cromo Basic</strong> Grezzo",
    "abstract": "Lorem ipsum dolor sit amet, consectetur adipiscing elit. Suspendisse ultricies posuere orci, ut sagittis neque commodo nec. Curabitur sed urna viverra, euismod ipsum at, tincidunt orci. Etiam varius et elit at pellentesque. ",
    "button": {
      "href": "/",
      "text": "vai alla scheda"
    },
    "catalog": {
      "href": "/",
      "image": "components/color-grid/img/catalog.jpg",
      "cta": "scarica il catalogo"
    },
    "thumb": "components/color-grid/img/c-3.jpg",
    "zoom": "components/color-grid/img/zoom.jpg",
    "detailsJSON": "pages/scheda/data/color-10_land.json"
  },
  {
    "id": "blu",
    "label": "<strong>Cromo Basic</strong> Grezzo",
    "abstract": "Lorem ipsum dolor sit amet, consectetur adipiscing elit. Suspendisse ultricies posuere orci, ut sagittis neque commodo nec. Curabitur sed urna viverra, euismod ipsum at, tincidunt orci. Etiam varius et elit at pellentesque. ",
    "button": {
      "href": "/",
      "text": "vai alla scheda"
    },
    "catalog": {
      "href": "/",
      "image": "components/color-grid/img/catalog.jpg",
      "cta": "scarica il catalogo"
    },
    "thumb": "components/color-grid/img/c-0.jpg",
    "zoom": "components/color-grid/img/zoom.jpg",
    "detailsJSON": "pages/scheda/data/color-30_work.json"
  },
  {
    "id": "blu",
    "label": "<strong>Cromo Basic</strong> Grezzo",
    "abstract": "Lorem ipsum dolor sit amet, consectetur adipiscing elit. Suspendisse ultricies posuere orci, ut sagittis neque commodo nec. Curabitur sed urna viverra, euismod ipsum at, tincidunt orci. Etiam varius et elit at pellentesque. ",
    "button": {
      "href": "/",
      "text": "vai alla scheda"
    },
    "catalog": {
      "href": "/",
      "image": "components/color-grid/img/catalog.jpg",
      "cta": "scarica il catalogo"
    },
    "thumb": "components/color-grid/img/c-1.jpg",
    "zoom": "components/color-grid/img/zoom.jpg",
    "detailsJSON": "pages/scheda/data/color-20_work.json"
  },
  {
    "id": "blu",
    "label": "<strong>Cromo Basic</strong> Grezzo",
    "abstract": "Lorem ipsum dolor sit amet, consectetur adipiscing elit. Suspendisse ultricies posuere orci, ut sagittis neque commodo nec. Curabitur sed urna viverra, euismod ipsum at, tincidunt orci. Etiam varius et elit at pellentesque. ",
    "button": {
      "href": "/",
      "text": "vai alla scheda"
    },
    "catalog": {
      "href": "/",
      "image": "components/color-grid/img/catalog.jpg",
      "cta": "scarica il catalogo"
    },
    "thumb": "components/color-grid/img/c-2.jpg",
    "zoom": "components/color-grid/img/zoom.jpg",
    "detailsJSON": "pages/scheda/data/color-10_work.json"
  },

  {
    "id": "blu",
    "label": "<strong>Cromo Basic</strong> Grezzo",
    "abstract": "Lorem ipsum dolor sit amet, consectetur adipiscing elit. Suspendisse ultricies posuere orci, ut sagittis neque commodo nec. Curabitur sed urna viverra, euismod ipsum at, tincidunt orci. Etiam varius et elit at pellentesque. ",
    "button": {
      "href": "/",
      "text": "vai alla scheda"
    },
    "catalog": {
      "href": "/",
      "image": "components/color-grid/img/catalog.jpg",
      "cta": "scarica il catalogo"
    },
    "thumb": "components/color-grid/img/c-3.jpg",
    "zoom": "components/color-grid/img/zoom.jpg",
    "detailsJSON": "pages/scheda/data/color-30_cem.json"
  },
  {
    "id": "blu",
    "label": "<strong>Cromo Basic</strong> Grezzo",
    "abstract": "Lorem ipsum dolor sit amet, consectetur adipiscing elit. Suspendisse ultricies posuere orci, ut sagittis neque commodo nec. Curabitur sed urna viverra, euismod ipsum at, tincidunt orci. Etiam varius et elit at pellentesque. ",
    "button": {
      "href": "/",
      "text": "vai alla scheda"
    },
    "catalog": {
      "href": "/",
      "image": "components/color-grid/img/catalog.jpg",
      "cta": "scarica il catalogo"
    },
    "thumb": "components/color-grid/img/c-0.jpg",
    "zoom": "components/color-grid/img/zoom.jpg",
    "detailsJSON": "pages/scheda/data/color-20_cem.json"
  },
  {
    "id": "blu",
    "label": "<strong>Cromo Basic</strong> Grezzo",
    "abstract": "Lorem ipsum dolor sit amet, consectetur adipiscing elit. Suspendisse ultricies posuere orci, ut sagittis neque commodo nec. Curabitur sed urna viverra, euismod ipsum at, tincidunt orci. Etiam varius et elit at pellentesque. ",
    "button": {
      "href": "/",
      "text": "vai alla scheda"
    },
    "catalog": {
      "href": "/",
      "image": "components/color-grid/img/catalog.jpg",
      "cta": "scarica il catalogo"
    },
    "thumb": "components/color-grid/img/c-1.jpg",
    "zoom": "components/color-grid/img/zoom.jpg",
    "detailsJSON": "pages/scheda/data/color-10_cem.json"
  },

  {
    "id": "blu",
    "label": "<strong>Cromo Basic</strong> Grezzo",
    "abstract": "Lorem ipsum dolor sit amet, consectetur adipiscing elit. Suspendisse ultricies posuere orci, ut sagittis neque commodo nec. Curabitur sed urna viverra, euismod ipsum at, tincidunt orci. Etiam varius et elit at pellentesque. ",
    "button": {
      "href": "/",
      "text": "vai alla scheda"
    },
    "catalog": {
      "href": "/",
      "image": "components/color-grid/img/catalog.jpg",
      "cta": "scarica il catalogo"
    },
    "thumb": "components/color-grid/img/c-2.jpg",
    "zoom": "components/color-grid/img/zoom.jpg",
    "detailsJSON": "pages/scheda/data/color-30_land.json"
  },
  {
    "id": "blu",
    "label": "<strong>Cromo Basic</strong> Grezzo",
    "abstract": "Lorem ipsum dolor sit amet, consectetur adipiscing elit. Suspendisse ultricies posuere orci, ut sagittis neque commodo nec. Curabitur sed urna viverra, euismod ipsum at, tincidunt orci. Etiam varius et elit at pellentesque. ",
    "button": {
      "href": "/",
      "text": "vai alla scheda"
    },
    "catalog": {
      "href": "/",
      "image": "components/color-grid/img/catalog.jpg",
      "cta": "scarica il catalogo"
    },
    "thumb": "components/color-grid/img/c-3.jpg",
    "zoom": "components/color-grid/img/zoom.jpg",
    "detailsJSON": "pages/scheda/data/color-20_land.json"
  }
]