<?xml version="1.0" encoding="utf-8"?>
<!-- Generator: Adobe Illustrator 21.1.0, SVG Export Plug-In . SVG Version: 6.00 Build 0)  -->
<svg version="1.1" id="Livello_1" xmlns="http://www.w3.org/2000/svg" xmlns:xlink="http://www.w3.org/1999/xlink" x="0px" y="0px"
	 width="12.3px" height="16.2px" viewBox="0 0 12.3 16.2" style="enable-background:new 0 0 12.3 16.2;" xml:space="preserve">
<style type="text/css">
	.st0{fill:#FFFFFF;}
</style>
<g>
	<path class="st0" d="M0.8,0C0.5,0,0,0.2,0,0.5v2v7.1v6.1c0,0.3,0.5,0.5,0.8,0.5s0.6-0.2,0.6-0.5v-5.6L2,9.9
		c1.3-0.3,2.6-0.1,3.8,0.3l0.1,0c0.9,0.3,1.8,0.5,2.8,0.5c0.6,0,1.3-0.1,2-0.2l1.3-0.3c0.2-0.1,0.4-0.3,0.4-0.5V2.6
		c0-0.2-0.1-0.3-0.2-0.4C11.9,2,11.8,2,11.6,2l-1.3,0.3C8.9,2.7,7.5,2.6,6.2,2.1l-0.1,0C4.7,1.6,3.2,1.5,1.7,1.8L1.4,1.9V0.5
		C1.4,0.3,1.1,0,0.8,0z M2,3.2C3.2,2.9,4.6,3,5.8,3.5l0.1,0C7.4,4,9,4.1,10.6,3.7l0.1-0.2v5.1l-0.4,0.2C8.9,9.2,7.5,9.2,6.2,8.7
		l-0.1,0C5.2,8.3,4.3,8.2,3.3,8.2c-0.5,0-1.1,0.1-1.6,0.2L1.4,8.5V3.3L2,3.2z"/>
</g>
</svg>
