<?xml version="1.0" encoding="utf-8"?>
<!-- Generator: Adobe Illustrator 21.1.0, SVG Export Plug-In . SVG Version: 6.00 Build 0)  -->
<svg version="1.1" id="Livello_1" xmlns="http://www.w3.org/2000/svg" xmlns:xlink="http://www.w3.org/1999/xlink" x="0px" y="0px"
	 width="236.1px" height="59.2px" viewBox="0 0 236.1 59.2" style="enable-background:new 0 0 236.1 59.2;" xml:space="preserve">
<style type="text/css">
	.st0{fill:#F37021;}
	.st1{fill:#F37035;}
	.st2{fill:#FFFFFF;}
</style>
<path class="st0" d="M55.2,42.6c-0.5,0.6-1,1-1.6,1.4c-4.2,3.7-16.2,13.8-16.2,13.8l5.6-17l-1.5-1.6c-0.9,2.4-5.1,14.6-5.8,17.1
	c-0.9,3-3.9,3.2-5.5,2.5c-1.1-0.4-16.8-5.5-20.6-7c-2.8-0.8-5-3.1-5.7-5.9C3.5,44.4,0,22.9,0,22.9l11.6,13.6l2.1-0.5
	c-1.7-2-9.9-11.9-11.6-13.8c-2.1-2.3-0.7-4.9,0.7-6C3.7,15.5,15.7,5,19.2,2.2C20.7,0.9,22.6,0,24.8,0l0.3,0c0.6,0,1.1,0.1,1.6,0.2
	c1.6,0.4,21.9,8.2,21.9,8.2l-17.6,3.3l-0.7,2c2.6-0.4,15.2-2.6,17.8-3.2c3.1-0.7,4.6,1.8,4.9,3.6c0.2,1.3,3.8,19.8,4,22.1
	c0.1,0.4,0.1,0.7,0.1,1.1c0,1.9-0.6,3.6-1.7,5C55.3,42.5,55.3,42.5,55.2,42.6 M29.5,54.6c2,0.7,2.7-0.9,3.1-2.4
	c0.1-0.4,1.3-3.9,2.7-7.9c-4.4,0.8-16.3,3.1-22.7,4.2C17.2,50.2,27.6,53.9,29.5,54.6 M39.9,31.1l7.7,9l-1.6,5.1
	c1.4-1.1,4.2-3.5,4.9-4.1c0.9-0.8,0.9-1.9,0.4-2.2C50.8,38.4,37,22.3,33,17.6l-9,1.6L28.1,8l5.3-1.1c-1.6-0.6-5.1-2-6-2.3
	c-1.1-0.4-2.1,0.2-2.2,0.7c-0.1,0.8-7.4,20.3-9.6,26.3l6,7.2l-11.7,2l-3.6-4c0.3,1.7,0.8,5.4,1,6.3c0.2,1.1,1.2,1.7,1.7,1.5
	c0.7-0.3,21.8-3.9,27.8-4.9L39.9,31.1z M19.9,7.1c-4,3.3-11.5,9.4-13,10.7c-1.7,1.3-0.6,2.7,0.4,3.9c0.3,0.3,2.6,3,5.3,6.2
	C14,23.6,17.7,13.2,19.9,7.1 M52.3,33.1c-0.9-5.2-2.4-14.4-2.7-16.3c-0.3-2.1-2.1-1.9-3.6-1.6c-0.4,0.1-4.1,0.7-8.3,1.5
	C40.8,20.1,48,28.2,52.3,33.1"/>
<rect x="86.2" y="48.5" class="st1" width="5.1" height="5.1"/>
<rect x="216.6" y="48.5" class="st1" width="5.1" height="5.1"/>
<path class="st2" d="M204.5,49.7c-0.3,0-1.3,0-1.3,0.5c0,0.1,0.1,0.2,0.3,0.3c0.2,0.1,0.5,0.1,0.9,0.1c0.6,0,1.1,0.1,1.3,0.1
	c0.9,0.1,1.8,0.4,1.8,1.4c0,1.4-1.6,1.7-2.7,1.7c-1.1,0-2.1-0.2-2.9-0.9l0.6-0.8c0.8,0.5,1.5,0.7,2.4,0.7c0.5,0,0.9-0.1,1.2-0.2
	c0.3-0.1,0.4-0.3,0.4-0.5c0-0.2-0.1-0.4-0.5-0.5c-0.2,0-0.7-0.1-1.6-0.2c-0.9-0.1-2.3-0.1-2.3-1.3c0-0.5,0.2-0.9,0.7-1.1
	c0.4-0.3,1-0.4,1.8-0.4c1,0,1.8,0.2,2.7,0.8l-0.6,0.7C206,49.9,205.3,49.7,204.5,49.7 M195.7,53.8v-4.9h1v3.9h3.6v1H195.7z
	 M191,50.1c-0.4-0.3-0.8-0.4-1.4-0.4c-0.6,0-1.1,0.2-1.5,0.5c-0.4,0.3-0.6,0.7-0.6,1.1c0,0.5,0.2,0.9,0.5,1.2
	c0.4,0.3,0.9,0.4,1.5,0.4c0.6,0,1.1-0.2,1.5-0.5c0.4-0.3,0.5-0.7,0.5-1.2C191.6,50.9,191.4,50.5,191,50.1 M191.7,53.3
	c-0.6,0.4-1.3,0.6-2.1,0.6c-0.8,0-1.6-0.2-2.1-0.6c-0.7-0.5-1-1.1-1-1.9c0-0.8,0.3-1.4,1-1.9c0.6-0.4,1.3-0.7,2.1-0.7
	c0.8,0,1.5,0.2,2.1,0.7c0.7,0.5,1,1.1,1,1.9C192.7,52.2,192.3,52.8,191.7,53.3 M182,50.1c-0.4-0.3-0.8-0.4-1.4-0.4
	c-0.6,0-1.1,0.2-1.5,0.5c-0.4,0.3-0.6,0.7-0.6,1.1c0,0.5,0.2,0.9,0.5,1.2c0.4,0.3,0.9,0.4,1.5,0.4c0.6,0,1.1-0.2,1.5-0.5
	c0.4-0.3,0.5-0.7,0.5-1.2C182.7,50.9,182.5,50.5,182,50.1 M182.8,53.3c-0.6,0.4-1.3,0.6-2.1,0.6c-0.8,0-1.6-0.2-2.1-0.6
	c-0.7-0.5-1-1.1-1-1.9c0-0.8,0.3-1.4,1-1.9c0.6-0.4,1.3-0.7,2.1-0.7c0.8,0,1.5,0.2,2.1,0.7c0.7,0.5,1,1.1,1,1.9
	C183.7,52.2,183.4,52.8,182.8,53.3 M173.5,49.9v3.9h-1v-3.9h-2.2v-1h5.5v1H173.5z M162.8,53.8v-2h-3.4v2h-1v-4.9h1v1.9h3.4v-1.9h1
	v4.9H162.8z M154.5,50.5c-0.5-0.6-1.2-0.8-1.9-0.8c-0.6,0-1.1,0.2-1.5,0.5c-0.4,0.3-0.6,0.7-0.6,1.1c0,0.5,0.2,0.9,0.5,1.2
	c0.4,0.3,0.9,0.4,1.5,0.4c0.8,0,1.4-0.2,1.9-0.8l0.9,0.5c-0.4,0.4-0.7,0.8-1.3,1c-0.4,0.2-1,0.3-1.6,0.3c-0.8,0-1.5-0.2-2.1-0.6
	c-0.6-0.5-1-1.1-1-1.9c0-0.8,0.3-1.4,1-1.9c0.6-0.4,1.3-0.6,2.1-0.6c1.3,0,2.1,0.4,2.9,1.4L154.5,50.5z M142.1,53.8v-4.9h4.9v1h-3.9
	v0.9h2.7v1h-2.7v1.1h4.1v1H142.1z M137.4,49.9v3.9h-1v-3.9h-2.2v-1h5.5v1H137.4z M126.7,53.8v-2h-3.4v2h-1v-4.9h1v1.9h3.4v-1.9h1
	v4.9H126.7z M118.4,53.2c-0.6,0.5-1.3,0.7-2.2,0.7c-1.5,0-3.1-0.9-3.1-2.6c0-0.8,0.3-1.4,1-1.9c0.6-0.4,1.3-0.7,2.2-0.7
	c1.2,0,2,0.4,2.7,1.3l-1,0.5c-0.5-0.6-1.1-0.8-1.8-0.8c-1,0-2,0.5-2,1.6c0,1.1,1,1.6,2,1.6c0.9,0,1.5-0.3,1.8-0.9h-2.1v-1h3.4v0.2
	C119.3,52.1,119,52.7,118.4,53.2 M109.1,48.9h1v4.9h-1V48.9z M104.8,53.8v-2h-3.4v2h-1v-4.9h1v1.9h3.4v-1.9h1v4.9H104.8z"/>
<path class="st2" d="M159.9,14.6c0.7,0,1.3,0.3,1.7,0.9l11,16.8c0.2,0.3,0.6,0.5,0.9,0.5c0.4,0,0.8-0.2,1-0.5l8.9-13.2
	c1.4-2.2,4.7-4.3,7.3-4.3l44.2,0h0.3c0.4,0,0.7,0.3,0.7,0.7v8.1c0,0.4-0.3,0.7-0.7,0.7l-0.3,0h-13.2l0,18v1.2c0,0.4-0.3,0.7-0.7,0.7
	H209c-0.4,0-0.7-0.3-0.7-0.7l0-19.2H196c-1.4,0.2-2.6,0.7-3.6,2.1L181,42.8c-0.5,0.9-1.4,1.4-2.5,1.4l-10.4,0c-1,0-1.8-0.5-2.3-1.2
	L155,26.6c-0.2-0.3-0.5-0.6-0.9-0.6c-0.4,0-0.8,0.2-1,0.6L142.2,43c-0.5,0.7-1.3,1.1-2.3,1.2l-10.4,0c-1,0-1.9-0.6-2.5-1.4
	l-11.3-16.4c-1.1-1.4-2.2-2-3.6-2.1H99.9l0,19.2c0,0.4-0.3,0.7-0.7,0.7H87c-0.4,0-0.7-0.3-0.7-0.7v-1.2l0-18H73.1l-0.3,0
	c-0.4,0-0.7-0.3-0.7-0.7v-8.1c0-0.4,0.3-0.7,0.7-0.7h0.3l37.5,0h6.7c2.7,0,5.9,2.2,7.3,4.3l8.9,13.2c0.2,0.3,0.6,0.5,1,0.5
	c0.4,0,0.7-0.2,0.9-0.5l11-16.8c0.4-0.5,1-0.9,1.7-0.9H159.9z"/>
</svg>
