<svg xmlns="http://www.w3.org/2000/svg" viewBox="-21387.58 -4751.136 226.578 35.452">
  <defs>
    <style>
      .cls-1, .cls-2 {
        fill: #fff;
      }

      .cls-2 {
        stroke: #fff;
      }
    </style>
  </defs>
  <g id="Group_166" data-name="Group 166" transform="translate(-21387.58 -4751.136)">
    <g id="Group_4" data-name="Group 4" transform="translate(0 0)">
      <path id="Path_18" data-name="Path 18" class="cls-1" d="M17.726,0A17.7,17.7,0,0,0,0,17.682v.525H0a17.733,17.733,0,0,0,35.452,0v-.525A17.7,17.7,0,0,0,17.726,0ZM31.994,18.383a16.19,16.19,0,0,1-1.007,6.434h0a14.251,14.251,0,0,1-5.165,7.309,8.551,8.551,0,0,1-4.639,1.357,6.088,6.088,0,0,1-3.414-1.094,6.571,6.571,0,0,1-3.5,1.094,8.1,8.1,0,0,1-4.639-1.357,14.25,14.25,0,0,1-5.165-7.309h0a16.937,16.937,0,0,1-1.007-6.565v-.525a18.006,18.006,0,0,1,1.007-7.047h0A14.509,14.509,0,0,1,9.629,3.37a8.551,8.551,0,0,1,4.639-1.357,6.571,6.571,0,0,1,3.5,1.094,6.221,6.221,0,0,1,3.414-1.094A8.1,8.1,0,0,1,25.823,3.37a14.251,14.251,0,0,1,5.165,7.309h0a18.232,18.232,0,0,1,1.007,7.047v.657Z" transform="translate(0)"/>
      <path id="Path_19" data-name="Path 19" class="cls-1" d="M25.547,22C20.82,22,17.8,25.239,17.8,29.222a7.076,7.076,0,0,0,7.265,7.222c.088,0,.438.044.481.044h.438a8.322,8.322,0,0,0,4.027-.875v.832l1.007-.044-.263-3.589h-.788l-.044.438c-.306,1.094-1.751,1.97-4.114,2.057h-.569c-2.582-.35-4.2-2.932-4.2-6.04,0-3.151,1.619-5.734,4.2-6.04h.569a3.765,3.765,0,0,1,4.027,3.108l.044.263v.394H30.8L31.062,22H30.055v.832a8.723,8.723,0,0,0-4.2-.788" transform="translate(-10.009 -12.371)"/>
      <path id="Path_20" data-name="Path 20" class="cls-1" d="M43.749,31.6h.875l.219-4.6h-.875v.832A8.464,8.464,0,0,0,39.81,27h-.481v1.138h.438c3.2.044,3.939,2.407,3.939,3.2h0V31.6Zm.044,4.6h.875V32.427h-.875v1.05H35.126a5.216,5.216,0,0,1,2.188-4.639,1.849,1.849,0,0,0-.7-1.182c-2.32.963-4.814,3.37-4.814,6.521a7.094,7.094,0,0,0,.875,3.37c.088,0,.35.088.438.088l.394.044a2.692,2.692,0,0,0,.569-.044,6.943,6.943,0,0,0,1.4-.438,5.2,5.2,0,0,1-.35-2.276h8.666Zm1.05,5.3-.219-4.552h-.875v.175h0a3.166,3.166,0,0,1-3.764,3.239,2.955,2.955,0,0,1-.613-.088h-.131a4.26,4.26,0,0,1-2.363-.963,7.252,7.252,0,0,1-2.714.394,8.592,8.592,0,0,0,5.427,1.926h.219a7.76,7.76,0,0,0,4.2-.963v.832Z" transform="translate(-17.882 -15.183)"/>
    </g>
    <g id="Group_8" data-name="Group 8" transform="translate(59.325 6.719)">
      <path id="Path_1" data-name="Path 1" class="cls-1" d="M189.2,1.3" transform="translate(-69.606 -0.478)"/>
      <line id="Line_1" data-name="Line 1" class="cls-2" transform="translate(50.378 0.822)"/>
      <path id="Path_2" data-name="Path 2" class="cls-1" d="M219.2,1.5" transform="translate(-80.643 -0.552)"/>
      <path id="Path_3" data-name="Path 3" class="cls-1" d="M69.458,3.7a1.617,1.617,0,0,0,1.58-1.643V1.616a.31.31,0,0,0-.316-.316H58.08A1.736,1.736,0,0,0,56.5,3.07v.253a.333.333,0,0,0,.379.316H62.5V21.78a.432.432,0,0,0,.442.442h2.339a.906.906,0,0,0,.442-.126.624.624,0,0,0,.126-.379V3.7Z" transform="translate(-20.786 -0.478)"/>
      <path id="Path_4" data-name="Path 4" class="cls-1" d="M94.184,3.7a1.617,1.617,0,0,0,1.58-1.643h0V1.616a.31.31,0,0,0-.316-.316H82.68A1.736,1.736,0,0,0,81.1,3.07v.253a.333.333,0,0,0,.379.316h4.994V21.78a.432.432,0,0,0,.442.442h2.339A.906.906,0,0,0,89.7,22.1a.624.624,0,0,0,.126-.379V3.7Z" transform="translate(-29.837 -0.478)"/>
      <path id="Path_5" data-name="Path 5" class="cls-1" d="M228.692,3.7h4.488a1.617,1.617,0,0,0,1.58-1.643h0V1.616a.31.31,0,0,0-.316-.316H220.98a1.736,1.736,0,0,0-1.58,1.77v.253a.333.333,0,0,0,.379.316H225.4V21.78a.432.432,0,0,0,.442.442h2.339a.906.906,0,0,0,.442-.126.624.624,0,0,0,.126-.379V3.7Z" transform="translate(-80.717 -0.478)"/>
      <path id="Path_6" data-name="Path 6" class="cls-1" d="M257.72,20.489s0-.253-.063-.316c-.126-.126-.379-.063-.379-.063H249.25V12.525h6.258s.19,0,.253-.063a.392.392,0,0,0,.126-.253v-1.58s0-.19-.126-.253c-.063-.063-.253-.063-.253-.063H249.25v-6.7h7.712a.63.63,0,0,0,.253-.063c.063-.063.063-.253.063-.253V3.043h0A1.632,1.632,0,0,0,255.634,1.4h-8.028A1.73,1.73,0,0,0,245.9,3.043h0v18.71a.779.779,0,0,0,.126.442.779.779,0,0,0,.442.126h9.481a1.632,1.632,0,0,0,1.643-1.643h0v-.19Z" transform="translate(-90.466 -0.515)"/>
      <path id="Path_7" data-name="Path 7" class="cls-1" d="M171.167,1.3h-4.109a23.3,23.3,0,0,1-.759,5.12,10.763,10.763,0,0,1,.948,3.729A32.158,32.158,0,0,0,171.167,1.3" transform="translate(-61.182 -0.478)"/>
      <path id="Path_8" data-name="Path 8" class="cls-1" d="M154.517,11.34c0,5.689-2.528,8.913-8.28,8.913a10.26,10.26,0,0,1-2.149-.126V3.565a11.066,11.066,0,0,1,2.528-.253c5.689-.063,7.9,3.034,7.9,8.028m3.413-.126a6.868,6.868,0,0,0-.063-1.138c-.253.379-.442.7-.7,1.011h-2.023a24.615,24.615,0,0,0,1.77-4.741,8.292,8.292,0,0,0-1.96-2.655c-1.833-1.707-4.614-2.592-8.47-2.592a28.469,28.469,0,0,0-3.413.19h0c-1.264.19-2.276.506-2.276,1.9v1.2h0v17.32c0,.316.063.379.063.379a.371.371,0,0,0,.316.126,23.6,23.6,0,0,0,4.994.379c4.045,0,6.764-1.2,8.723-3.161a11.326,11.326,0,0,0,3.034-8.217" transform="translate(-51.8 -0.405)"/>
      <path id="Path_9" data-name="Path 9" class="cls-1" d="M42.513,11.546c0,4.741-1.833,8.723-6.131,8.723s-6.131-4.045-6.131-8.533c0-4.551,1.643-8.723,6.131-8.723,4.551-.063,6.131,4.3,6.131,8.533m3.477-.126C45.989,5.161,42.323.8,36.571.8,31.009.8,26.9,5.161,26.9,11.8c0,6.321,3.856,10.683,9.355,10.683,5.373-.063,9.734-3.919,9.734-11.062" transform="translate(-9.896 -0.294)"/>
      <path id="Path_10" data-name="Path 10" class="cls-1" d="M192,1.3" transform="translate(-70.636 -0.478)"/>
      <line id="Line_2" data-name="Line 2" class="cls-2" transform="translate(52.401 0.822)"/>
      <path id="Path_11" data-name="Path 11" class="cls-1" d="M105.913,11.546c0,4.741,1.833,8.723,6.131,8.723s6.131-4.045,6.131-8.533c0-4.551-1.643-8.723-6.131-8.723-4.551-.063-6.131,4.3-6.131,8.533m-3.413-.126C102.5,5.161,106.166.8,111.918.8c5.562,0,9.671,4.361,9.671,11,0,6.321-3.856,10.683-9.355,10.683-5.373-.063-9.734-3.919-9.734-11.062" transform="translate(-37.71 -0.294)"/>
      <path id="Path_12" data-name="Path 12" class="cls-1" d="M198.86,19.6a5.466,5.466,0,0,0-.442.632l-.126.253s-.063.19.063.253l.063.063a11.391,11.391,0,0,0,5.373,1.58c4.93,0,7.269-2.844,7.269-6.068,0-3.1-1.517-5.057-5.689-6.763-2.4-1.138-3.161-2.339-3.161-3.413a3.078,3.078,0,0,1,3.35-3.161c1.9,0,3.224.569,3.729.316.379-.19.632-.885.822-1.264a.223.223,0,0,0-.063-.316A8.433,8.433,0,0,0,205.623.7c-4.045,0-6.764,2.4-6.764,5.689,0,2.908,2.086,4.614,5.5,6,2.592,1.327,3.35,2.339,3.35,4.172a3.482,3.482,0,0,1-3.729,3.413,9.342,9.342,0,0,1-2.4-.253,6.466,6.466,0,0,1-.7-.19l-.379-.126a1.4,1.4,0,0,0-1.643.19" transform="translate(-72.945 -0.258)"/>
      <path id="Path_13" data-name="Path 13" class="cls-1" d="M189.22,20.489s0-.253-.063-.316c-.126-.126-.379-.063-.379-.063H180.75V12.525h6.258s.19,0,.253-.063a.392.392,0,0,0,.126-.253v-1.58s0-.19-.126-.253c-.063-.063-.253-.063-.253-.063H180.75v-6.7h7.712a.63.63,0,0,0,.253-.063c.063-.063.063-.253.063-.253V3.043h0A1.632,1.632,0,0,0,187.134,1.4h-8.028A1.73,1.73,0,0,0,177.4,3.043h0v18.71a.779.779,0,0,0,.126.442.779.779,0,0,0,.442.126h9.482a1.632,1.632,0,0,0,1.643-1.643h0v-.19Z" transform="translate(-65.265 -0.515)"/>
      <path id="Path_14" data-name="Path 14" class="cls-1" d="M222,1.5" transform="translate(-81.673 -0.552)"/>
      <path id="Path_15" data-name="Path 15" class="cls-1" d="M16.751,2.149c.063-.126,0-.316-.316-.506l-.126-.063A10.907,10.907,0,0,0,11.884.063,8.485,8.485,0,0,0,10.556,0,12.532,12.532,0,0,0,8.344.19,4.735,4.735,0,0,0,7.332.442,6.213,6.213,0,0,0,6.321.759C2.528,2.086,0,5.626,0,10.935v.316c0,5.31,2.528,8.786,6.384,10.177.316.126.632.19,1.011.316.316.063.7.19,1.011.253a12.532,12.532,0,0,0,2.212.19,8.485,8.485,0,0,0,1.327-.063,10.667,10.667,0,0,0,4.425-1.517l.126-.063c.316-.19.379-.379.316-.506l-.063-.253c-.126-.316-.759-1.707-.948-2.023-.19-.19-.316-.063-.569.126a9.752,9.752,0,0,1-1.391,1.264,4.984,4.984,0,0,1-2.718.948c-4.361-.063-7.459-3.6-7.459-8.849h0v-.126h0c0-5.31,3.161-8.786,7.459-8.849a4.8,4.8,0,0,1,2.718.948,9.752,9.752,0,0,1,1.391,1.264c.253.19.379.316.569.126.19-.316.822-1.707.948-2.023-.126-.19,0-.379,0-.442" transform="translate(0)"/>
    </g>
  </g>
</svg>
