<svg xmlns="http://www.w3.org/2000/svg" viewBox="-5805.894 -8843 30.205 24.875">
  <defs>
    <style>
      .cls-1, .cls-3 {
        fill: none;
      }

      .cls-1 {
        stroke: #A3A19F;
      }

      .cls-2 {
        stroke: none;
      }
    </style>
  </defs>
  <g id="Group_460" data-name="Group 460" transform="translate(-6146.894 -9462)">
    <g id="Group_458" data-name="Group 458" transform="translate(341 619)">
      <g id="Rectangle_347" data-name="Rectangle 347" class="cls-1">
        <rect class="cls-2" width="14.214" height="24.874"/>
        <rect class="cls-3" x="0.5" y="0.5" width="13.214" height="23.874"/>
      </g>
      <g id="Rectangle_348" data-name="Rectangle 348" class="cls-1" transform="translate(15.991)">
        <rect class="cls-2" width="14.214" height="7.995"/>
        <rect class="cls-3" x="0.5" y="0.5" width="13.214" height="6.995"/>
      </g>
      <g id="Rectangle_349" data-name="Rectangle 349" class="cls-1" transform="translate(15.991 9.772)">
        <rect class="cls-2" width="14.214" height="15.102"/>
        <rect class="cls-3" x="0.5" y="0.5" width="13.214" height="14.102"/>
      </g>
    </g>
  </g>
</svg>
