<svg xmlns="http://www.w3.org/2000/svg" viewBox="0 0 21 13">
  <defs>
    <style>
      .cls-1 {
        fill: none;
        stroke: #fff;
      }
    </style>
  </defs>
  <g id="Group_488" data-name="Group 488" transform="translate(-201.5 -2985)">
    <line id="Line_225" data-name="Line 225" class="cls-1" x2="21" transform="translate(201.5 2985.5)"/>
    <line id="Line_225-2" data-name="Line 225" class="cls-1" x2="21" transform="translate(201.5 2991.5)"/>
    <line id="Line_225-3" data-name="Line 225" class="cls-1" x2="21" transform="translate(201.5 2997.5)"/>
  </g>
</svg>
