<svg xmlns="http://www.w3.org/2000/svg" viewBox="-5995.895 -8823.5 30.205 24.52">
  <defs>
    <style>
      .cls-1, .cls-2, .cls-3 {
        fill: none;
        stroke: #fff;
      }

      .cls-2 {
        stroke-width: 3px;
      }

      .cls-3 {
        stroke-width: 5px;
      }
    </style>
  </defs>
  <g id="Group_461" data-name="Group 461" transform="translate(-6160.395 -9448.5)">
    <line id="Line_192" data-name="Line 192" class="cls-1" x2="30.205" transform="translate(164.5 625.5)"/>
    <line id="Line_193" data-name="Line 193" class="cls-2" x2="30.205" transform="translate(164.5 636.26)"/>
    <line id="Line_194" data-name="Line 194" class="cls-3" x2="30.205" transform="translate(164.5 647.02)"/>
  </g>
</svg>
