<svg xmlns="http://www.w3.org/2000/svg" viewBox="-5787.013 -3010 42.273 52.156">
  <defs>
    <style>
      .cls-1 {
        fill: #fff;
      }
    </style>
  </defs>
  <path id="Union_13" data-name="Union 13" class="cls-1" d="M20.393,51.974a3.322,3.322,0,0,0-.991-.747,13.468,13.468,0,0,1-2.233-1.741A58.747,58.747,0,0,1,10.2,42.77C3.989,35.81,0,28.6,0,21.143a21.136,21.136,0,1,1,42.273,0c0,7.2-3.734,14.668-10.2,21.627a58.415,58.415,0,0,1-6.958,6.716c-.749.5-1.488,1.246-2.233,1.741-.5.5-.749.747-.991.747a1.75,1.75,0,0,1-.755.182A1.67,1.67,0,0,1,20.393,51.974ZM2.488,21.143c0,6.706,3.482,13.422,9.7,20.128A81.281,81.281,0,0,0,18.9,47.746c.252.241,2.249,1.739,2.249,1.739a23.055,23.055,0,0,1,2.233-1.739c2.233-1.993,4.467-4.229,6.716-6.475,6.212-6.706,9.695-13.422,9.695-20.128A18.791,18.791,0,0,0,21.144,2.488,18.792,18.792,0,0,0,2.488,21.143Zm4.976,0A13.792,13.792,0,0,1,21.144,7.466,13.8,13.8,0,0,1,34.818,21.143,13.793,13.793,0,0,1,21.144,34.809,13.79,13.79,0,0,1,7.464,21.143Zm2.491,0A11.186,11.186,0,1,0,21.144,9.954,11.14,11.14,0,0,0,9.956,21.143Z" transform="translate(-5787.013 -3010)"/>
</svg>
