<?xml version="1.0" encoding="utf-8"?>
<!-- Generator: Adobe Illustrator 21.1.0, SVG Export Plug-In . SVG Version: 6.00 Build 0)  -->
<svg version="1.1" id="Livello_1" xmlns="http://www.w3.org/2000/svg" xmlns:xlink="http://www.w3.org/1999/xlink" x="0px" y="0px"
	 width="25px" height="25px" viewBox="0 0 25 25" style="enable-background:new 0 0 25 25;" xml:space="preserve">
<style type="text/css">
	.st0{fill:#FFFFFF;}
</style>
<g>
	<path class="st0" d="M12.5,0C5.6,0,0,5.6,0,12.5S5.6,25,12.5,25S25,19.4,25,12.5S19.4,0,12.5,0z M12.5,24.2C6,24.2,0.8,19,0.8,12.5
		S6,0.8,12.5,0.8S24.2,6,24.2,12.5S19,24.2,12.5,24.2z"/>
	<g>
		<path class="st0" d="M12.5,11.2l2-2C14.7,9,14.9,8.9,15.1,9c0.3,0,0.5,0.1,0.7,0.3C16,9.4,16,9.6,16,9.9c0,0.2-0.1,0.5-0.3,0.6
			l-2,2l2,2c0.2,0.2,0.3,0.4,0.3,0.7c0,0.3-0.1,0.5-0.3,0.7c-0.2,0.2-0.4,0.3-0.7,0.3c-0.3,0-0.5-0.1-0.7-0.3l-2-2l-2,2
			c-0.2,0.2-0.4,0.3-0.7,0.3c-0.3,0-0.5-0.1-0.7-0.3c-0.2-0.2-0.3-0.4-0.3-0.7c0-0.3,0.1-0.5,0.3-0.7l2-2l-2-2
			C9,10.3,8.9,10.1,8.9,9.9c0-0.3,0.1-0.5,0.3-0.7C9.4,9,9.6,8.9,9.9,8.9c0.3,0,0.5,0.1,0.6,0.3L12.5,11.2z"/>
	</g>
</g>
</svg>
