<?xml version="1.0" encoding="utf-8"?>
<!-- Generator: Adobe Illustrator 21.1.0, SVG Export Plug-In . SVG Version: 6.00 Build 0)  -->
<svg version="1.1" id="Livello_1" xmlns="http://www.w3.org/2000/svg" xmlns:xlink="http://www.w3.org/1999/xlink" x="0px" y="0px"
	 width="39.7px" height="12.8px" viewBox="0 0 39.7 12.8" style="enable-background:new 0 0 39.7 12.8;" xml:space="preserve">
<style type="text/css">
	.st0{fill-rule:evenodd;clip-rule:evenodd;fill:#545455;}
</style>
<g>
	<polygon class="st0" points="7,0.7 6.3,0 0.7,5.7 0.7,5.7 0,6.4 0,6.4 0,6.4 0.7,7.1 0.7,7.1 6.3,12.8 7,12.1 1.4,6.4 	"/>
	<path class="st0" d="M1,5.9v1h38.7v-1H1z"/>
</g>
</svg>
