<?xml version="1.0" encoding="utf-8"?>
<!-- Generator: Adobe Illustrator 21.1.0, SVG Export Plug-In . SVG Version: 6.00 Build 0)  -->
<svg version="1.1" id="Livello_1" xmlns="http://www.w3.org/2000/svg" xmlns:xlink="http://www.w3.org/1999/xlink" x="0px" y="0px"
	 width="15.7px" height="15.6px" viewBox="0 0 15.7 15.6" style="enable-background:new 0 0 15.7 15.6;" xml:space="preserve">
<style type="text/css">
	.st0{fill:#FFFFFF;}
</style>
<g>
	<path class="st0" d="M10.3,1.8c-2.4-2.4-6.2-2.4-8.5,0c-2.4,2.4-2.4,6.2,0,8.5c2.1,2.1,5.4,2.4,7.8,0.6c0,0,0,0.1,0.1,0.1l4.4,4.4
		c0.4,0.4,1,0.3,1.4-0.1c0.3-0.4,0.3-1,0-1.3L11,9.6c0,0-0.1,0-0.1-0.1C12.6,7.2,12.4,3.9,10.3,1.8z M8.9,8.9
		c-1.6,1.6-4.1,1.6-5.7,0c-1.6-1.6-1.6-4.1,0-5.7c1.6-1.6,4.1-1.6,5.7,0l0,0C10.5,4.7,10.5,7.3,8.9,8.9z"/>
</g>
</svg>
