<svg xmlns="http://www.w3.org/2000/svg" viewBox="-13031.235 -8257.52 18.513 12.835">
  <defs>
    <style>
      .cls-1 {
        fill: none;
        stroke: #6d6e71;
      }
    </style>
  </defs>
  <g id="Group_377" data-name="Group 377" transform="translate(-13232.551 -11223)">
    <path id="Path_887" data-name="Path 887" class="cls-1" d="M0,0,9.088,5.912l5.478-3.674L17.934,0" transform="translate(201.617 2965.899)"/>
    <path id="Path_888" data-name="Path 888" class="cls-1" d="M0,0,8.874,6.021l5.692-3.783L17.934,0" transform="translate(219.527 2977.899) rotate(180)"/>
  </g>
</svg>
