<svg xmlns="http://www.w3.org/2000/svg" viewBox="-13037.277 -8292.771 30.558 11.103">
  <defs>
    <style>
      .cls-1 {
        fill: none;
        stroke: #A3A19F;
      }
    </style>
  </defs>
  <path id="Path_914" data-name="Path 914" class="cls-1" d="M0,0,14.9,10.084,30,0" transform="translate(-13007 -8282.085) rotate(180)"/>
</svg>
