<svg xmlns="http://www.w3.org/2000/svg" width="17" height="32.03" viewBox="0 0 17 32.03">
  <metadata><?xpacket begin="﻿" id="W5M0MpCehiHzreSzNTczkc9d"?>
<x:xmpmeta xmlns:x="adobe:ns:meta/" x:xmptk="Adobe XMP Core 5.6-c138 79.159824, 2016/09/14-01:09:01        ">
   <rdf:RDF xmlns:rdf="http://www.w3.org/1999/02/22-rdf-syntax-ns#">
      <rdf:Description rdf:about=""/>
   </rdf:RDF>
</x:xmpmeta>
                                                                                                    
                                                                                                    
                                                                                                    
                                                                                                    
                                                                                                    
                                                                                                    
                                                                                                    
                                                                                                    
                                                                                                    
                                                                                                    
                                                                                                    
                                                                                                    
                                                                                                    
                                                                                                    
                                                                                                    
                                                                                                    
                                                                                                    
                                                                                                    
                                                                                                    
                                                                                                    
                           
<?xpacket end="w"?></metadata>
<defs>
    <style>
      .cls-1 {
        fill: #269cd4;
        fill-rule: evenodd;
      }
    </style>
  </defs>
  <path id="Icon" class="cls-1" d="M1367.95,3131.36l-14.57,14.8a1.2,1.2,0,0,0,0,1.68l14.57,14.8a1.18,1.18,0,0,0,1.69.01,1.2,1.2,0,0,0,.02-1.69L1355.91,3147l13.75-13.96a1.2,1.2,0,0,0-.02-1.69,1.141,1.141,0,0,0-.84-0.35A1.19,1.19,0,0,0,1367.95,3131.36Z" transform="translate(-1353.03 -3131)"/>
</svg>
