<?xml version="1.0" encoding="utf-8"?>
<!-- Generator: Adobe Illustrator 21.1.0, SVG Export Plug-In . SVG Version: 6.00 Build 0)  -->
<svg version="1.1" id="Livello_1" xmlns="http://www.w3.org/2000/svg" xmlns:xlink="http://www.w3.org/1999/xlink" x="0px" y="0px"
	 width="112px" height="112px" viewBox="0 0 112 112" style="enable-background:new 0 0 112 112;" xml:space="preserve">
<style type="text/css">
	.st0{fill:#FFFFFF;}
</style>
<g>
	<path class="st0" d="M54.6,40.6C52.5,38.5,49,40,49,42.8V69c0,2.9,3.5,4.3,5.6,2.2l13-13.3c1.3-1.3,1.3-3.4,0-4.6L54.6,40.6z"/>
	<path class="st0" d="M56,0C25.1,0,0,25.1,0,56s25.1,56,56,56c30.9,0,56-25.1,56-56S86.9,0,56,0z M56,108.4C27,108.4,3.6,85,3.6,56
		C3.6,27,27,3.6,56,3.6c29,0,52.4,23.4,52.4,52.4C108.4,85,85,108.4,56,108.4z"/>
</g>
</svg>
