<?xml version="1.0" encoding="utf-8"?>
<!-- Generator: Adobe Illustrator 21.1.0, SVG Export Plug-In . SVG Version: 6.00 Build 0)  -->
<svg version="1.1" id="Livello_1" xmlns="http://www.w3.org/2000/svg" xmlns:xlink="http://www.w3.org/1999/xlink" x="0px" y="0px"
	 viewBox="0 0 37.5 36.4" style="enable-background:new 0 0 37.5 36.4;" xml:space="preserve">
<style type="text/css">
	.st0{fill:#FFFFFF;}
</style>
<g>
	<path class="st0" d="M20.3,29.9c-0.5,0.1-1.4,0.2-2,0.2c-3.3,0-4.7-1.7-5.3-4c-0.1-0.2-0.1-0.5-0.2-0.8c0,0,0,0,0-0.1
		c-0.1-0.8-0.2-1.7-0.2-2.6v-3.5v-0.4v-0.5v-6.6V11V11H13h3.1V4.7h-3.5V0h-2.4C3.5,0,0,2.6,0,8.2v0.5v0.7v0.9v9v0.5v0.6v3.8
		c0,2.2,0.5,4.2,1.5,5.8l0,0c0,0,0.2,0.3,0.5,0.8c0.2,0.3,0.4,0.5,0.4,0.5l0,0c2,2.5,5,4.1,8.6,4.7C11,35.9,18,34.3,20.3,29.9z"/>
	<path class="st0" d="M22,8.8L22,8.8c0,0-0.2,0.3-0.4,0.8c-0.2,0.5-0.3,0.9-0.3,0.9l0,0c-0.2,1.1-0.2,2.3,0.1,3.5
		c0.6,2.6,1.1,4.6,1.5,6.7c0,0.1,0,0.2,0,0.2c0.3,1.6,0.5,3.2,0.5,5.1c0,0.7-0.1,1.3-0.2,1.9c-0.7,3.4-3.3,6.1-8,7.8l0.1,0.5
		c0.4,0,1.6,0.1,4,0.1c5.2,0,11-1.2,14-4.6l0,0c0,0,0.3-0.3,0.5-0.6c0.2-0.3,0.3-0.4,0.3-0.4l0,0c0.8-1.3,1.3-2.8,1.3-4.7
		c0-1.4-0.5-4-0.9-6.3c0,0,0,0,0,0s-0.1-0.7-0.2-0.9c0,0,0,0,0,0C34,17,33.7,15.5,33.6,15c-0.1-0.8-0.1-1.4,0-2
		c0.4-1.6,1.8-2.1,3.9-2.1V4.7h-8.1C25.9,4.7,23.2,6.3,22,8.8z"/>
</g>
</svg>
