<?xml version="1.0" encoding="utf-8"?>
<!-- Generator: Adobe Illustrator 21.1.0, SVG Export Plug-In . SVG Version: 6.00 Build 0)  -->
<svg version="1.1" id="Livello_1" xmlns="http://www.w3.org/2000/svg" xmlns:xlink="http://www.w3.org/1999/xlink" x="0px" y="0px"
	 viewBox="0 0 18 18" style="enable-background:new 0 0 18 18;" xml:space="preserve">
<style type="text/css">
	.st0{display:none;fill:#3f90cf;}
	.st1{fill:none;stroke:#3f90cf;stroke-width:2;stroke-linecap:round;stroke-linejoin:round;stroke-miterlimit:10;}
	.st2{display:none;}
	.st3{display:inline;fill:none;stroke:#3f90cf;stroke-width:2;stroke-linecap:round;stroke-linejoin:round;stroke-miterlimit:10;}
	.st4{display:inline;}
</style>
<rect x="18" class="st0" width="18" height="18"/>
<g>
	<line class="st1" x1="12.2" y1="2.6" x2="5.8" y2="9"/>
	<line class="st1" x1="12.2" y1="15.4" x2="5.8" y2="9"/>
</g>
<g class="st2">
	<line class="st3" x1="5.8" y1="2.6" x2="12.2" y2="9"/>
	<line class="st3" x1="5.8" y1="15.4" x2="12.2" y2="9"/>
</g>
<g class="st2">
	<g class="st4">
		<line class="st1" x1="15.4" y1="2.6" x2="9" y2="9"/>
		<line class="st1" x1="15.4" y1="15.4" x2="9" y2="9"/>
	</g>
	<g class="st4">
		<line class="st1" x1="2.6" y1="2.6" x2="9" y2="9"/>
		<line class="st1" x1="2.6" y1="15.4" x2="9" y2="9"/>
	</g>
</g>
</svg>
