<svg xmlns="http://www.w3.org/2000/svg" viewBox="0 0 58 110">
  <defs>
    <style>
      .cls-1 {
        fill: #fff;
        stroke: #707070;
      }

      .cls-2 {
        stroke: none;
      }

      .cls-3 {
        fill: none;
      }
    </style>
  </defs>
  <g id="Rectangle_173" data-name="Rectangle 173" class="cls-1">
    <rect class="cls-2" width="58" height="110"/>
    <rect class="cls-3" x="0.5" y="0.5" width="57" height="109"/>
  </g>
</svg>
